[
    {
        "type": "archive",
        "archive-type": "tar-gzip",
        "url": "https://static.crates.io/crates/addr2line/addr2line-0.21.0.crate",
        "sha256": "8a30b2e23b9e17a9f90641c7ab1549cd9b44f296d3ccbf309d2863cfe398a0cb",
        "dest": "cargo/vendor/addr2line-0.21.0"
    },
    {
        "type": "inline",
        "contents": "{\"package\": \"8a30b2e23b9e17a9f90641c7ab1549cd9b44f296d3ccbf309d2863cfe398a0cb\", \"files\": {}}",
        "dest": "cargo/vendor/addr2line-0.21.0",
        "dest-filename": ".cargo-checksum.json"
    },
    {
        "type": "archive",
        "archive-type": "tar-gzip",
        "url": "https://static.crates.io/crates/adler/adler-1.0.2.crate",
        "sha256": "f26201604c87b1e01bd3d98f8d5d9a8fcbb815e8cedb41ffccbeb4bf593a35fe",
        "dest": "cargo/vendor/adler-1.0.2"
    },
    {
        "type": "inline",
        "contents": "{\"package\": \"f26201604c87b1e01bd3d98f8d5d9a8fcbb815e8cedb41ffccbeb4bf593a35fe\", \"files\": {}}",
        "dest": "cargo/vendor/adler-1.0.2",
        "dest-filename": ".cargo-checksum.json"
    },
    {
        "type": "archive",
        "archive-type": "tar-gzip",
        "url": "https://static.crates.io/crates/aes/aes-0.8.4.crate",
        "sha256": "b169f7a6d4742236a0a00c541b845991d0ac43e546831af1249753ab4c3aa3a0",
        "dest": "cargo/vendor/aes-0.8.4"
    },
    {
        "type": "inline",
        "contents": "{\"package\": \"b169f7a6d4742236a0a00c541b845991d0ac43e546831af1249753ab4c3aa3a0\", \"files\": {}}",
        "dest": "cargo/vendor/aes-0.8.4",
        "dest-filename": ".cargo-checksum.json"
    },
    {
        "type": "archive",
        "archive-type": "tar-gzip",
        "url": "https://static.crates.io/crates/async-broadcast/async-broadcast-0.7.0.crate",
        "sha256": "258b52a1aa741b9f09783b2d86cf0aeeb617bbf847f6933340a39644227acbdb",
        "dest": "cargo/vendor/async-broadcast-0.7.0"
    },
    {
        "type": "inline",
        "contents": "{\"package\": \"258b52a1aa741b9f09783b2d86cf0aeeb617bbf847f6933340a39644227acbdb\", \"files\": {}}",
        "dest": "cargo/vendor/async-broadcast-0.7.0",
        "dest-filename": ".cargo-checksum.json"
    },
    {
        "type": "archive",
        "archive-type": "tar-gzip",
        "url": "https://static.crates.io/crates/async-channel/async-channel-2.3.1.crate",
        "sha256": "89b47800b0be77592da0afd425cc03468052844aff33b84e33cc696f64e77b6a",
        "dest": "cargo/vendor/async-channel-2.3.1"
    },
    {
        "type": "inline",
        "contents": "{\"package\": \"89b47800b0be77592da0afd425cc03468052844aff33b84e33cc696f64e77b6a\", \"files\": {}}",
        "dest": "cargo/vendor/async-channel-2.3.1",
        "dest-filename": ".cargo-checksum.json"
    },
    {
        "type": "archive",
        "archive-type": "tar-gzip",
        "url": "https://static.crates.io/crates/async-executor/async-executor-1.11.0.crate",
        "sha256": "b10202063978b3351199d68f8b22c4e47e4b1b822f8d43fd862d5ea8c006b29a",
        "dest": "cargo/vendor/async-executor-1.11.0"
    },
    {
        "type": "inline",
        "contents": "{\"package\": \"b10202063978b3351199d68f8b22c4e47e4b1b822f8d43fd862d5ea8c006b29a\", \"files\": {}}",
        "dest": "cargo/vendor/async-executor-1.11.0",
        "dest-filename": ".cargo-checksum.json"
    },
    {
        "type": "archive",
        "archive-type": "tar-gzip",
        "url": "https://static.crates.io/crates/async-fs/async-fs-2.1.2.crate",
        "sha256": "ebcd09b382f40fcd159c2d695175b2ae620ffa5f3bd6f664131efff4e8b9e04a",
        "dest": "cargo/vendor/async-fs-2.1.2"
    },
    {
        "type": "inline",
        "contents": "{\"package\": \"ebcd09b382f40fcd159c2d695175b2ae620ffa5f3bd6f664131efff4e8b9e04a\", \"files\": {}}",
        "dest": "cargo/vendor/async-fs-2.1.2",
        "dest-filename": ".cargo-checksum.json"
    },
    {
        "type": "archive",
        "archive-type": "tar-gzip",
        "url": "https://static.crates.io/crates/async-io/async-io-2.3.2.crate",
        "sha256": "dcccb0f599cfa2f8ace422d3555572f47424da5648a4382a9dd0310ff8210884",
        "dest": "cargo/vendor/async-io-2.3.2"
    },
    {
        "type": "inline",
        "contents": "{\"package\": \"dcccb0f599cfa2f8ace422d3555572f47424da5648a4382a9dd0310ff8210884\", \"files\": {}}",
        "dest": "cargo/vendor/async-io-2.3.2",
        "dest-filename": ".cargo-checksum.json"
    },
    {
        "type": "archive",
        "archive-type": "tar-gzip",
        "url": "https://static.crates.io/crates/async-lock/async-lock-3.3.0.crate",
        "sha256": "d034b430882f8381900d3fe6f0aaa3ad94f2cb4ac519b429692a1bc2dda4ae7b",
        "dest": "cargo/vendor/async-lock-3.3.0"
    },
    {
        "type": "inline",
        "contents": "{\"package\": \"d034b430882f8381900d3fe6f0aaa3ad94f2cb4ac519b429692a1bc2dda4ae7b\", \"files\": {}}",
        "dest": "cargo/vendor/async-lock-3.3.0",
        "dest-filename": ".cargo-checksum.json"
    },
    {
        "type": "archive",
        "archive-type": "tar-gzip",
        "url": "https://static.crates.io/crates/async-process/async-process-2.2.2.crate",
        "sha256": "a53fc6301894e04a92cb2584fedde80cb25ba8e02d9dc39d4a87d036e22f397d",
        "dest": "cargo/vendor/async-process-2.2.2"
    },
    {
        "type": "inline",
        "contents": "{\"package\": \"a53fc6301894e04a92cb2584fedde80cb25ba8e02d9dc39d4a87d036e22f397d\", \"files\": {}}",
        "dest": "cargo/vendor/async-process-2.2.2",
        "dest-filename": ".cargo-checksum.json"
    },
    {
        "type": "archive",
        "archive-type": "tar-gzip",
        "url": "https://static.crates.io/crates/async-recursion/async-recursion-1.1.1.crate",
        "sha256": "3b43422f69d8ff38f95f1b2bb76517c91589a924d1559a0e935d7c8ce0274c11",
        "dest": "cargo/vendor/async-recursion-1.1.1"
    },
    {
        "type": "inline",
        "contents": "{\"package\": \"3b43422f69d8ff38f95f1b2bb76517c91589a924d1559a0e935d7c8ce0274c11\", \"files\": {}}",
        "dest": "cargo/vendor/async-recursion-1.1.1",
        "dest-filename": ".cargo-checksum.json"
    },
    {
        "type": "archive",
        "archive-type": "tar-gzip",
        "url": "https://static.crates.io/crates/async-signal/async-signal-0.2.6.crate",
        "sha256": "afe66191c335039c7bb78f99dc7520b0cbb166b3a1cb33a03f53d8a1c6f2afda",
        "dest": "cargo/vendor/async-signal-0.2.6"
    },
    {
        "type": "inline",
        "contents": "{\"package\": \"afe66191c335039c7bb78f99dc7520b0cbb166b3a1cb33a03f53d8a1c6f2afda\", \"files\": {}}",
        "dest": "cargo/vendor/async-signal-0.2.6",
        "dest-filename": ".cargo-checksum.json"
    },
    {
        "type": "archive",
        "archive-type": "tar-gzip",
        "url": "https://static.crates.io/crates/async-task/async-task-4.7.1.crate",
        "sha256": "8b75356056920673b02621b35afd0f7dda9306d03c79a30f5c56c44cf256e3de",
        "dest": "cargo/vendor/async-task-4.7.1"
    },
    {
        "type": "inline",
        "contents": "{\"package\": \"8b75356056920673b02621b35afd0f7dda9306d03c79a30f5c56c44cf256e3de\", \"files\": {}}",
        "dest": "cargo/vendor/async-task-4.7.1",
        "dest-filename": ".cargo-checksum.json"
    },
    {
        "type": "archive",
        "archive-type": "tar-gzip",
        "url": "https://static.crates.io/crates/async-trait/async-trait-0.1.80.crate",
        "sha256": "c6fa2087f2753a7da8cc1c0dbfcf89579dd57458e36769de5ac750b4671737ca",
        "dest": "cargo/vendor/async-trait-0.1.80"
    },
    {
        "type": "inline",
        "contents": "{\"package\": \"c6fa2087f2753a7da8cc1c0dbfcf89579dd57458e36769de5ac750b4671737ca\", \"files\": {}}",
        "dest": "cargo/vendor/async-trait-0.1.80",
        "dest-filename": ".cargo-checksum.json"
    },
    {
        "type": "archive",
        "archive-type": "tar-gzip",
        "url": "https://static.crates.io/crates/atomic-waker/atomic-waker-1.1.2.crate",
        "sha256": "1505bd5d3d116872e7271a6d4e16d81d0c8570876c8de68093a09ac269d8aac0",
        "dest": "cargo/vendor/atomic-waker-1.1.2"
    },
    {
        "type": "inline",
        "contents": "{\"package\": \"1505bd5d3d116872e7271a6d4e16d81d0c8570876c8de68093a09ac269d8aac0\", \"files\": {}}",
        "dest": "cargo/vendor/atomic-waker-1.1.2",
        "dest-filename": ".cargo-checksum.json"
    },
    {
        "type": "archive",
        "archive-type": "tar-gzip",
        "url": "https://static.crates.io/crates/autocfg/autocfg-1.3.0.crate",
        "sha256": "0c4b4d0bd25bd0b74681c0ad21497610ce1b7c91b1022cd21c80c6fbdd9476b0",
        "dest": "cargo/vendor/autocfg-1.3.0"
    },
    {
        "type": "inline",
        "contents": "{\"package\": \"0c4b4d0bd25bd0b74681c0ad21497610ce1b7c91b1022cd21c80c6fbdd9476b0\", \"files\": {}}",
        "dest": "cargo/vendor/autocfg-1.3.0",
        "dest-filename": ".cargo-checksum.json"
    },
    {
        "type": "archive",
        "archive-type": "tar-gzip",
        "url": "https://static.crates.io/crates/backtrace/backtrace-0.3.71.crate",
        "sha256": "26b05800d2e817c8b3b4b54abd461726265fa9789ae34330622f2db9ee696f9d",
        "dest": "cargo/vendor/backtrace-0.3.71"
    },
    {
        "type": "inline",
        "contents": "{\"package\": \"26b05800d2e817c8b3b4b54abd461726265fa9789ae34330622f2db9ee696f9d\", \"files\": {}}",
        "dest": "cargo/vendor/backtrace-0.3.71",
        "dest-filename": ".cargo-checksum.json"
    },
    {
        "type": "archive",
        "archive-type": "tar-gzip",
        "url": "https://static.crates.io/crates/bitflags/bitflags-2.5.0.crate",
        "sha256": "cf4b9d6a944f767f8e5e0db018570623c85f3d925ac718db4e06d0187adb21c1",
        "dest": "cargo/vendor/bitflags-2.5.0"
    },
    {
        "type": "inline",
        "contents": "{\"package\": \"cf4b9d6a944f767f8e5e0db018570623c85f3d925ac718db4e06d0187adb21c1\", \"files\": {}}",
        "dest": "cargo/vendor/bitflags-2.5.0",
        "dest-filename": ".cargo-checksum.json"
    },
    {
        "type": "archive",
        "archive-type": "tar-gzip",
        "url": "https://static.crates.io/crates/block-buffer/block-buffer-0.10.4.crate",
        "sha256": "3078c7629b62d3f0439517fa394996acacc5cbc91c5a20d8c658e77abd503a71",
        "dest": "cargo/vendor/block-buffer-0.10.4"
    },
    {
        "type": "inline",
        "contents": "{\"package\": \"3078c7629b62d3f0439517fa394996acacc5cbc91c5a20d8c658e77abd503a71\", \"files\": {}}",
        "dest": "cargo/vendor/block-buffer-0.10.4",
        "dest-filename": ".cargo-checksum.json"
    },
    {
        "type": "archive",
        "archive-type": "tar-gzip",
        "url": "https://static.crates.io/crates/block-padding/block-padding-0.3.3.crate",
        "sha256": "a8894febbff9f758034a5b8e12d87918f56dfc64a8e1fe757d65e29041538d93",
        "dest": "cargo/vendor/block-padding-0.3.3"
    },
    {
        "type": "inline",
        "contents": "{\"package\": \"a8894febbff9f758034a5b8e12d87918f56dfc64a8e1fe757d65e29041538d93\", \"files\": {}}",
        "dest": "cargo/vendor/block-padding-0.3.3",
        "dest-filename": ".cargo-checksum.json"
    },
    {
        "type": "archive",
        "archive-type": "tar-gzip",
        "url": "https://static.crates.io/crates/blocking/blocking-1.6.0.crate",
        "sha256": "495f7104e962b7356f0aeb34247aca1fe7d2e783b346582db7f2904cb5717e88",
        "dest": "cargo/vendor/blocking-1.6.0"
    },
    {
        "type": "inline",
        "contents": "{\"package\": \"495f7104e962b7356f0aeb34247aca1fe7d2e783b346582db7f2904cb5717e88\", \"files\": {}}",
        "dest": "cargo/vendor/blocking-1.6.0",
        "dest-filename": ".cargo-checksum.json"
    },
    {
        "type": "archive",
        "archive-type": "tar-gzip",
        "url": "https://static.crates.io/crates/byteorder/byteorder-1.5.0.crate",
        "sha256": "1fd0f2584146f6f2ef48085050886acf353beff7305ebd1ae69500e27c67f64b",
        "dest": "cargo/vendor/byteorder-1.5.0"
    },
    {
        "type": "inline",
        "contents": "{\"package\": \"1fd0f2584146f6f2ef48085050886acf353beff7305ebd1ae69500e27c67f64b\", \"files\": {}}",
        "dest": "cargo/vendor/byteorder-1.5.0",
        "dest-filename": ".cargo-checksum.json"
    },
    {
        "type": "archive",
        "archive-type": "tar-gzip",
        "url": "https://static.crates.io/crates/bytes/bytes-1.6.0.crate",
        "sha256": "514de17de45fdb8dc022b1a7975556c53c86f9f0aa5f534b98977b171857c2c9",
        "dest": "cargo/vendor/bytes-1.6.0"
    },
    {
        "type": "inline",
        "contents": "{\"package\": \"514de17de45fdb8dc022b1a7975556c53c86f9f0aa5f534b98977b171857c2c9\", \"files\": {}}",
        "dest": "cargo/vendor/bytes-1.6.0",
        "dest-filename": ".cargo-checksum.json"
    },
    {
        "type": "archive",
        "archive-type": "tar-gzip",
        "url": "https://static.crates.io/crates/cbc/cbc-0.1.2.crate",
        "sha256": "26b52a9543ae338f279b96b0b9fed9c8093744685043739079ce85cd58f289a6",
        "dest": "cargo/vendor/cbc-0.1.2"
    },
    {
        "type": "inline",
        "contents": "{\"package\": \"26b52a9543ae338f279b96b0b9fed9c8093744685043739079ce85cd58f289a6\", \"files\": {}}",
        "dest": "cargo/vendor/cbc-0.1.2",
        "dest-filename": ".cargo-checksum.json"
    },
    {
        "type": "archive",
        "archive-type": "tar-gzip",
        "url": "https://static.crates.io/crates/cc/cc-1.0.98.crate",
        "sha256": "41c270e7540d725e65ac7f1b212ac8ce349719624d7bcff99f8e2e488e8cf03f",
        "dest": "cargo/vendor/cc-1.0.98"
    },
    {
        "type": "inline",
        "contents": "{\"package\": \"41c270e7540d725e65ac7f1b212ac8ce349719624d7bcff99f8e2e488e8cf03f\", \"files\": {}}",
        "dest": "cargo/vendor/cc-1.0.98",
        "dest-filename": ".cargo-checksum.json"
    },
    {
        "type": "archive",
        "archive-type": "tar-gzip",
        "url": "https://static.crates.io/crates/cfg-if/cfg-if-1.0.0.crate",
        "sha256": "baf1de4339761588bc0619e3cbc0120ee582ebb74b53b4efbf79117bd2da40fd",
        "dest": "cargo/vendor/cfg-if-1.0.0"
    },
    {
        "type": "inline",
        "contents": "{\"package\": \"baf1de4339761588bc0619e3cbc0120ee582ebb74b53b4efbf79117bd2da40fd\", \"files\": {}}",
        "dest": "cargo/vendor/cfg-if-1.0.0",
        "dest-filename": ".cargo-checksum.json"
    },
    {
        "type": "archive",
        "archive-type": "tar-gzip",
        "url": "https://static.crates.io/crates/cfg_aliases/cfg_aliases-0.1.1.crate",
        "sha256": "fd16c4719339c4530435d38e511904438d07cce7950afa3718a84ac36c10e89e",
        "dest": "cargo/vendor/cfg_aliases-0.1.1"
    },
    {
        "type": "inline",
        "contents": "{\"package\": \"fd16c4719339c4530435d38e511904438d07cce7950afa3718a84ac36c10e89e\", \"files\": {}}",
        "dest": "cargo/vendor/cfg_aliases-0.1.1",
        "dest-filename": ".cargo-checksum.json"
    },
    {
        "type": "archive",
        "archive-type": "tar-gzip",
        "url": "https://static.crates.io/crates/cipher/cipher-0.4.4.crate",
        "sha256": "773f3b9af64447d2ce9850330c473515014aa235e6a783b02db81ff39e4a3dad",
        "dest": "cargo/vendor/cipher-0.4.4"
    },
    {
        "type": "inline",
        "contents": "{\"package\": \"773f3b9af64447d2ce9850330c473515014aa235e6a783b02db81ff39e4a3dad\", \"files\": {}}",
        "dest": "cargo/vendor/cipher-0.4.4",
        "dest-filename": ".cargo-checksum.json"
    },
    {
        "type": "archive",
        "archive-type": "tar-gzip",
        "url": "https://static.crates.io/crates/concurrent-queue/concurrent-queue-2.5.0.crate",
        "sha256": "4ca0197aee26d1ae37445ee532fefce43251d24cc7c166799f4d46817f1d3973",
        "dest": "cargo/vendor/concurrent-queue-2.5.0"
    },
    {
        "type": "inline",
        "contents": "{\"package\": \"4ca0197aee26d1ae37445ee532fefce43251d24cc7c166799f4d46817f1d3973\", \"files\": {}}",
        "dest": "cargo/vendor/concurrent-queue-2.5.0",
        "dest-filename": ".cargo-checksum.json"
    },
    {
        "type": "archive",
        "archive-type": "tar-gzip",
        "url": "https://static.crates.io/crates/cpufeatures/cpufeatures-0.2.12.crate",
        "sha256": "53fe5e26ff1b7aef8bca9c6080520cfb8d9333c7568e1829cef191a9723e5504",
        "dest": "cargo/vendor/cpufeatures-0.2.12"
    },
    {
        "type": "inline",
        "contents": "{\"package\": \"53fe5e26ff1b7aef8bca9c6080520cfb8d9333c7568e1829cef191a9723e5504\", \"files\": {}}",
        "dest": "cargo/vendor/cpufeatures-0.2.12",
        "dest-filename": ".cargo-checksum.json"
    },
    {
        "type": "archive",
        "archive-type": "tar-gzip",
        "url": "https://static.crates.io/crates/crc/crc-3.2.1.crate",
        "sha256": "69e6e4d7b33a94f0991c26729976b10ebde1d34c3ee82408fb536164fa10d636",
        "dest": "cargo/vendor/crc-3.2.1"
    },
    {
        "type": "inline",
        "contents": "{\"package\": \"69e6e4d7b33a94f0991c26729976b10ebde1d34c3ee82408fb536164fa10d636\", \"files\": {}}",
        "dest": "cargo/vendor/crc-3.2.1",
        "dest-filename": ".cargo-checksum.json"
    },
    {
        "type": "archive",
        "archive-type": "tar-gzip",
        "url": "https://static.crates.io/crates/crc-catalog/crc-catalog-2.4.0.crate",
        "sha256": "19d374276b40fb8bbdee95aef7c7fa6b5316ec764510eb64b8dd0e2ed0d7e7f5",
        "dest": "cargo/vendor/crc-catalog-2.4.0"
    },
    {
        "type": "inline",
        "contents": "{\"package\": \"19d374276b40fb8bbdee95aef7c7fa6b5316ec764510eb64b8dd0e2ed0d7e7f5\", \"files\": {}}",
        "dest": "cargo/vendor/crc-catalog-2.4.0",
        "dest-filename": ".cargo-checksum.json"
    },
    {
        "type": "archive",
        "archive-type": "tar-gzip",
        "url": "https://static.crates.io/crates/crossbeam-utils/crossbeam-utils-0.8.20.crate",
        "sha256": "22ec99545bb0ed0ea7bb9b8e1e9122ea386ff8a48c0922e43f36d45ab09e0e80",
        "dest": "cargo/vendor/crossbeam-utils-0.8.20"
    },
    {
        "type": "inline",
        "contents": "{\"package\": \"22ec99545bb0ed0ea7bb9b8e1e9122ea386ff8a48c0922e43f36d45ab09e0e80\", \"files\": {}}",
        "dest": "cargo/vendor/crossbeam-utils-0.8.20",
        "dest-filename": ".cargo-checksum.json"
    },
    {
        "type": "archive",
        "archive-type": "tar-gzip",
        "url": "https://static.crates.io/crates/crypto-common/crypto-common-0.1.6.crate",
        "sha256": "1bfb12502f3fc46cca1bb51ac28df9d618d813cdc3d2f25b9fe775a34af26bb3",
        "dest": "cargo/vendor/crypto-common-0.1.6"
    },
    {
        "type": "inline",
        "contents": "{\"package\": \"1bfb12502f3fc46cca1bb51ac28df9d618d813cdc3d2f25b9fe775a34af26bb3\", \"files\": {}}",
        "dest": "cargo/vendor/crypto-common-0.1.6",
        "dest-filename": ".cargo-checksum.json"
    },
    {
        "type": "archive",
        "archive-type": "tar-gzip",
        "url": "https://static.crates.io/crates/digest/digest-0.10.7.crate",
        "sha256": "9ed9a281f7bc9b7576e61468ba615a66a5c8cfdff42420a70aa82701a3b1e292",
        "dest": "cargo/vendor/digest-0.10.7"
    },
    {
        "type": "inline",
        "contents": "{\"package\": \"9ed9a281f7bc9b7576e61468ba615a66a5c8cfdff42420a70aa82701a3b1e292\", \"files\": {}}",
        "dest": "cargo/vendor/digest-0.10.7",
        "dest-filename": ".cargo-checksum.json"
    },
    {
        "type": "archive",
        "archive-type": "tar-gzip",
        "url": "https://static.crates.io/crates/endi/endi-1.1.0.crate",
        "sha256": "a3d8a32ae18130a3c84dd492d4215c3d913c3b07c6b63c2eb3eb7ff1101ab7bf",
        "dest": "cargo/vendor/endi-1.1.0"
    },
    {
        "type": "inline",
        "contents": "{\"package\": \"a3d8a32ae18130a3c84dd492d4215c3d913c3b07c6b63c2eb3eb7ff1101ab7bf\", \"files\": {}}",
        "dest": "cargo/vendor/endi-1.1.0",
        "dest-filename": ".cargo-checksum.json"
    },
    {
        "type": "archive",
        "archive-type": "tar-gzip",
        "url": "https://static.crates.io/crates/enumflags2/enumflags2-0.7.9.crate",
        "sha256": "3278c9d5fb675e0a51dabcf4c0d355f692b064171535ba72361be1528a9d8e8d",
        "dest": "cargo/vendor/enumflags2-0.7.9"
    },
    {
        "type": "inline",
        "contents": "{\"package\": \"3278c9d5fb675e0a51dabcf4c0d355f692b064171535ba72361be1528a9d8e8d\", \"files\": {}}",
        "dest": "cargo/vendor/enumflags2-0.7.9",
        "dest-filename": ".cargo-checksum.json"
    },
    {
        "type": "archive",
        "archive-type": "tar-gzip",
        "url": "https://static.crates.io/crates/enumflags2_derive/enumflags2_derive-0.7.9.crate",
        "sha256": "5c785274071b1b420972453b306eeca06acf4633829db4223b58a2a8c5953bc4",
        "dest": "cargo/vendor/enumflags2_derive-0.7.9"
    },
    {
        "type": "inline",
        "contents": "{\"package\": \"5c785274071b1b420972453b306eeca06acf4633829db4223b58a2a8c5953bc4\", \"files\": {}}",
        "dest": "cargo/vendor/enumflags2_derive-0.7.9",
        "dest-filename": ".cargo-checksum.json"
    },
    {
        "type": "archive",
        "archive-type": "tar-gzip",
        "url": "https://static.crates.io/crates/equivalent/equivalent-1.0.1.crate",
        "sha256": "5443807d6dff69373d433ab9ef5378ad8df50ca6298caf15de6e52e24aaf54d5",
        "dest": "cargo/vendor/equivalent-1.0.1"
    },
    {
        "type": "inline",
        "contents": "{\"package\": \"5443807d6dff69373d433ab9ef5378ad8df50ca6298caf15de6e52e24aaf54d5\", \"files\": {}}",
        "dest": "cargo/vendor/equivalent-1.0.1",
        "dest-filename": ".cargo-checksum.json"
    },
    {
        "type": "archive",
        "archive-type": "tar-gzip",
        "url": "https://static.crates.io/crates/errno/errno-0.3.9.crate",
        "sha256": "534c5cf6194dfab3db3242765c03bbe257cf92f22b38f6bc0c58d59108a820ba",
        "dest": "cargo/vendor/errno-0.3.9"
    },
    {
        "type": "inline",
        "contents": "{\"package\": \"534c5cf6194dfab3db3242765c03bbe257cf92f22b38f6bc0c58d59108a820ba\", \"files\": {}}",
        "dest": "cargo/vendor/errno-0.3.9",
        "dest-filename": ".cargo-checksum.json"
    },
    {
        "type": "archive",
        "archive-type": "tar-gzip",
        "url": "https://static.crates.io/crates/event-listener/event-listener-4.0.3.crate",
        "sha256": "67b215c49b2b248c855fb73579eb1f4f26c38ffdc12973e20e07b91d78d5646e",
        "dest": "cargo/vendor/event-listener-4.0.3"
    },
    {
        "type": "inline",
        "contents": "{\"package\": \"67b215c49b2b248c855fb73579eb1f4f26c38ffdc12973e20e07b91d78d5646e\", \"files\": {}}",
        "dest": "cargo/vendor/event-listener-4.0.3",
        "dest-filename": ".cargo-checksum.json"
    },
    {
        "type": "archive",
        "archive-type": "tar-gzip",
        "url": "https://static.crates.io/crates/event-listener/event-listener-5.3.0.crate",
        "sha256": "6d9944b8ca13534cdfb2800775f8dd4902ff3fc75a50101466decadfdf322a24",
        "dest": "cargo/vendor/event-listener-5.3.0"
    },
    {
        "type": "inline",
        "contents": "{\"package\": \"6d9944b8ca13534cdfb2800775f8dd4902ff3fc75a50101466decadfdf322a24\", \"files\": {}}",
        "dest": "cargo/vendor/event-listener-5.3.0",
        "dest-filename": ".cargo-checksum.json"
    },
    {
        "type": "archive",
        "archive-type": "tar-gzip",
        "url": "https://static.crates.io/crates/event-listener-strategy/event-listener-strategy-0.4.0.crate",
        "sha256": "958e4d70b6d5e81971bebec42271ec641e7ff4e170a6fa605f2b8a8b65cb97d3",
        "dest": "cargo/vendor/event-listener-strategy-0.4.0"
    },
    {
        "type": "inline",
        "contents": "{\"package\": \"958e4d70b6d5e81971bebec42271ec641e7ff4e170a6fa605f2b8a8b65cb97d3\", \"files\": {}}",
        "dest": "cargo/vendor/event-listener-strategy-0.4.0",
        "dest-filename": ".cargo-checksum.json"
    },
    {
        "type": "archive",
        "archive-type": "tar-gzip",
        "url": "https://static.crates.io/crates/event-listener-strategy/event-listener-strategy-0.5.2.crate",
        "sha256": "0f214dc438f977e6d4e3500aaa277f5ad94ca83fbbd9b1a15713ce2344ccc5a1",
        "dest": "cargo/vendor/event-listener-strategy-0.5.2"
    },
    {
        "type": "inline",
        "contents": "{\"package\": \"0f214dc438f977e6d4e3500aaa277f5ad94ca83fbbd9b1a15713ce2344ccc5a1\", \"files\": {}}",
        "dest": "cargo/vendor/event-listener-strategy-0.5.2",
        "dest-filename": ".cargo-checksum.json"
    },
    {
        "type": "archive",
        "archive-type": "tar-gzip",
        "url": "https://static.crates.io/crates/fastrand/fastrand-2.1.0.crate",
        "sha256": "9fc0510504f03c51ada170672ac806f1f105a88aa97a5281117e1ddc3368e51a",
        "dest": "cargo/vendor/fastrand-2.1.0"
    },
    {
        "type": "inline",
        "contents": "{\"package\": \"9fc0510504f03c51ada170672ac806f1f105a88aa97a5281117e1ddc3368e51a\", \"files\": {}}",
        "dest": "cargo/vendor/fastrand-2.1.0",
        "dest-filename": ".cargo-checksum.json"
    },
    {
        "type": "archive",
        "archive-type": "tar-gzip",
        "url": "https://static.crates.io/crates/futures-core/futures-core-0.3.30.crate",
        "sha256": "dfc6580bb841c5a68e9ef15c77ccc837b40a7504914d52e47b8b0e9bbda25a1d",
        "dest": "cargo/vendor/futures-core-0.3.30"
    },
    {
        "type": "inline",
        "contents": "{\"package\": \"dfc6580bb841c5a68e9ef15c77ccc837b40a7504914d52e47b8b0e9bbda25a1d\", \"files\": {}}",
        "dest": "cargo/vendor/futures-core-0.3.30",
        "dest-filename": ".cargo-checksum.json"
    },
    {
        "type": "archive",
        "archive-type": "tar-gzip",
        "url": "https://static.crates.io/crates/futures-io/futures-io-0.3.30.crate",
        "sha256": "a44623e20b9681a318efdd71c299b6b222ed6f231972bfe2f224ebad6311f0c1",
        "dest": "cargo/vendor/futures-io-0.3.30"
    },
    {
        "type": "inline",
        "contents": "{\"package\": \"a44623e20b9681a318efdd71c299b6b222ed6f231972bfe2f224ebad6311f0c1\", \"files\": {}}",
        "dest": "cargo/vendor/futures-io-0.3.30",
        "dest-filename": ".cargo-checksum.json"
    },
    {
        "type": "archive",
        "archive-type": "tar-gzip",
        "url": "https://static.crates.io/crates/futures-lite/futures-lite-2.3.0.crate",
        "sha256": "52527eb5074e35e9339c6b4e8d12600c7128b68fb25dcb9fa9dec18f7c25f3a5",
        "dest": "cargo/vendor/futures-lite-2.3.0"
    },
    {
        "type": "inline",
        "contents": "{\"package\": \"52527eb5074e35e9339c6b4e8d12600c7128b68fb25dcb9fa9dec18f7c25f3a5\", \"files\": {}}",
        "dest": "cargo/vendor/futures-lite-2.3.0",
        "dest-filename": ".cargo-checksum.json"
    },
    {
        "type": "archive",
        "archive-type": "tar-gzip",
        "url": "https://static.crates.io/crates/futures-macro/futures-macro-0.3.30.crate",
        "sha256": "87750cf4b7a4c0625b1529e4c543c2182106e4dedc60a2a6455e00d212c489ac",
        "dest": "cargo/vendor/futures-macro-0.3.30"
    },
    {
        "type": "inline",
        "contents": "{\"package\": \"87750cf4b7a4c0625b1529e4c543c2182106e4dedc60a2a6455e00d212c489ac\", \"files\": {}}",
        "dest": "cargo/vendor/futures-macro-0.3.30",
        "dest-filename": ".cargo-checksum.json"
    },
    {
        "type": "archive",
        "archive-type": "tar-gzip",
        "url": "https://static.crates.io/crates/futures-sink/futures-sink-0.3.30.crate",
        "sha256": "9fb8e00e87438d937621c1c6269e53f536c14d3fbd6a042bb24879e57d474fb5",
        "dest": "cargo/vendor/futures-sink-0.3.30"
    },
    {
        "type": "inline",
        "contents": "{\"package\": \"9fb8e00e87438d937621c1c6269e53f536c14d3fbd6a042bb24879e57d474fb5\", \"files\": {}}",
        "dest": "cargo/vendor/futures-sink-0.3.30",
        "dest-filename": ".cargo-checksum.json"
    },
    {
        "type": "archive",
        "archive-type": "tar-gzip",
        "url": "https://static.crates.io/crates/futures-task/futures-task-0.3.30.crate",
        "sha256": "38d84fa142264698cdce1a9f9172cf383a0c82de1bddcf3092901442c4097004",
        "dest": "cargo/vendor/futures-task-0.3.30"
    },
    {
        "type": "inline",
        "contents": "{\"package\": \"38d84fa142264698cdce1a9f9172cf383a0c82de1bddcf3092901442c4097004\", \"files\": {}}",
        "dest": "cargo/vendor/futures-task-0.3.30",
        "dest-filename": ".cargo-checksum.json"
    },
    {
        "type": "archive",
        "archive-type": "tar-gzip",
        "url": "https://static.crates.io/crates/futures-util/futures-util-0.3.30.crate",
        "sha256": "3d6401deb83407ab3da39eba7e33987a73c3df0c82b4bb5813ee871c19c41d48",
        "dest": "cargo/vendor/futures-util-0.3.30"
    },
    {
        "type": "inline",
        "contents": "{\"package\": \"3d6401deb83407ab3da39eba7e33987a73c3df0c82b4bb5813ee871c19c41d48\", \"files\": {}}",
        "dest": "cargo/vendor/futures-util-0.3.30",
        "dest-filename": ".cargo-checksum.json"
    },
    {
        "type": "archive",
        "archive-type": "tar-gzip",
        "url": "https://static.crates.io/crates/generic-array/generic-array-0.14.7.crate",
        "sha256": "85649ca51fd72272d7821adaf274ad91c288277713d9c18820d8499a7ff69e9a",
        "dest": "cargo/vendor/generic-array-0.14.7"
    },
    {
        "type": "inline",
        "contents": "{\"package\": \"85649ca51fd72272d7821adaf274ad91c288277713d9c18820d8499a7ff69e9a\", \"files\": {}}",
        "dest": "cargo/vendor/generic-array-0.14.7",
        "dest-filename": ".cargo-checksum.json"
    },
    {
        "type": "archive",
        "archive-type": "tar-gzip",
        "url": "https://static.crates.io/crates/getrandom/getrandom-0.2.15.crate",
        "sha256": "c4567c8db10ae91089c99af84c68c38da3ec2f087c3f82960bcdbf3656b6f4d7",
        "dest": "cargo/vendor/getrandom-0.2.15"
    },
    {
        "type": "inline",
        "contents": "{\"package\": \"c4567c8db10ae91089c99af84c68c38da3ec2f087c3f82960bcdbf3656b6f4d7\", \"files\": {}}",
        "dest": "cargo/vendor/getrandom-0.2.15",
        "dest-filename": ".cargo-checksum.json"
    },
    {
        "type": "archive",
        "archive-type": "tar-gzip",
        "url": "https://static.crates.io/crates/gimli/gimli-0.28.1.crate",
        "sha256": "4271d37baee1b8c7e4b708028c57d816cf9d2434acb33a549475f78c181f6253",
        "dest": "cargo/vendor/gimli-0.28.1"
    },
    {
        "type": "inline",
        "contents": "{\"package\": \"4271d37baee1b8c7e4b708028c57d816cf9d2434acb33a549475f78c181f6253\", \"files\": {}}",
        "dest": "cargo/vendor/gimli-0.28.1",
        "dest-filename": ".cargo-checksum.json"
    },
    {
        "type": "archive",
        "archive-type": "tar-gzip",
        "url": "https://static.crates.io/crates/hashbrown/hashbrown-0.14.5.crate",
        "sha256": "e5274423e17b7c9fc20b6e7e208532f9b19825d82dfd615708b70edd83df41f1",
        "dest": "cargo/vendor/hashbrown-0.14.5"
    },
    {
        "type": "inline",
        "contents": "{\"package\": \"e5274423e17b7c9fc20b6e7e208532f9b19825d82dfd615708b70edd83df41f1\", \"files\": {}}",
        "dest": "cargo/vendor/hashbrown-0.14.5",
        "dest-filename": ".cargo-checksum.json"
    },
    {
        "type": "archive",
        "archive-type": "tar-gzip",
        "url": "https://static.crates.io/crates/hermit-abi/hermit-abi-0.3.9.crate",
        "sha256": "d231dfb89cfffdbc30e7fc41579ed6066ad03abda9e567ccafae602b97ec5024",
        "dest": "cargo/vendor/hermit-abi-0.3.9"
    },
    {
        "type": "inline",
        "contents": "{\"package\": \"d231dfb89cfffdbc30e7fc41579ed6066ad03abda9e567ccafae602b97ec5024\", \"files\": {}}",
        "dest": "cargo/vendor/hermit-abi-0.3.9",
        "dest-filename": ".cargo-checksum.json"
    },
    {
        "type": "archive",
        "archive-type": "tar-gzip",
        "url": "https://static.crates.io/crates/hex/hex-0.4.3.crate",
        "sha256": "7f24254aa9a54b5c858eaee2f5bccdb46aaf0e486a595ed5fd8f86ba55232a70",
        "dest": "cargo/vendor/hex-0.4.3"
    },
    {
        "type": "inline",
        "contents": "{\"package\": \"7f24254aa9a54b5c858eaee2f5bccdb46aaf0e486a595ed5fd8f86ba55232a70\", \"files\": {}}",
        "dest": "cargo/vendor/hex-0.4.3",
        "dest-filename": ".cargo-checksum.json"
    },
    {
        "type": "archive",
        "archive-type": "tar-gzip",
        "url": "https://static.crates.io/crates/hkdf/hkdf-0.12.4.crate",
        "sha256": "7b5f8eb2ad728638ea2c7d47a21db23b7b58a72ed6a38256b8a1849f15fbbdf7",
        "dest": "cargo/vendor/hkdf-0.12.4"
    },
    {
        "type": "inline",
        "contents": "{\"package\": \"7b5f8eb2ad728638ea2c7d47a21db23b7b58a72ed6a38256b8a1849f15fbbdf7\", \"files\": {}}",
        "dest": "cargo/vendor/hkdf-0.12.4",
        "dest-filename": ".cargo-checksum.json"
    },
    {
        "type": "archive",
        "archive-type": "tar-gzip",
        "url": "https://static.crates.io/crates/hmac/hmac-0.12.1.crate",
        "sha256": "6c49c37c09c17a53d937dfbb742eb3a961d65a994e6bcdcf37e7399d0cc8ab5e",
        "dest": "cargo/vendor/hmac-0.12.1"
    },
    {
        "type": "inline",
        "contents": "{\"package\": \"6c49c37c09c17a53d937dfbb742eb3a961d65a994e6bcdcf37e7399d0cc8ab5e\", \"files\": {}}",
        "dest": "cargo/vendor/hmac-0.12.1",
        "dest-filename": ".cargo-checksum.json"
    },
    {
        "type": "archive",
        "archive-type": "tar-gzip",
        "url": "https://static.crates.io/crates/indexmap/indexmap-2.2.6.crate",
        "sha256": "168fb715dda47215e360912c096649d23d58bf392ac62f73919e831745e40f26",
        "dest": "cargo/vendor/indexmap-2.2.6"
    },
    {
        "type": "inline",
        "contents": "{\"package\": \"168fb715dda47215e360912c096649d23d58bf392ac62f73919e831745e40f26\", \"files\": {}}",
        "dest": "cargo/vendor/indexmap-2.2.6",
        "dest-filename": ".cargo-checksum.json"
    },
    {
        "type": "archive",
        "archive-type": "tar-gzip",
        "url": "https://static.crates.io/crates/inout/inout-0.1.3.crate",
        "sha256": "a0c10553d664a4d0bcff9f4215d0aac67a639cc68ef660840afe309b807bc9f5",
        "dest": "cargo/vendor/inout-0.1.3"
    },
    {
        "type": "inline",
        "contents": "{\"package\": \"a0c10553d664a4d0bcff9f4215d0aac67a639cc68ef660840afe309b807bc9f5\", \"files\": {}}",
        "dest": "cargo/vendor/inout-0.1.3",
        "dest-filename": ".cargo-checksum.json"
    },
    {
        "type": "archive",
        "archive-type": "tar-gzip",
        "url": "https://static.crates.io/crates/lazy_static/lazy_static-1.4.0.crate",
        "sha256": "e2abad23fbc42b3700f2f279844dc832adb2b2eb069b2df918f455c4e18cc646",
        "dest": "cargo/vendor/lazy_static-1.4.0"
    },
    {
        "type": "inline",
        "contents": "{\"package\": \"e2abad23fbc42b3700f2f279844dc832adb2b2eb069b2df918f455c4e18cc646\", \"files\": {}}",
        "dest": "cargo/vendor/lazy_static-1.4.0",
        "dest-filename": ".cargo-checksum.json"
    },
    {
        "type": "archive",
        "archive-type": "tar-gzip",
        "url": "https://static.crates.io/crates/libc/libc-0.2.155.crate",
        "sha256": "97b3888a4aecf77e811145cadf6eef5901f4782c53886191b2f693f24761847c",
        "dest": "cargo/vendor/libc-0.2.155"
    },
    {
        "type": "inline",
        "contents": "{\"package\": \"97b3888a4aecf77e811145cadf6eef5901f4782c53886191b2f693f24761847c\", \"files\": {}}",
        "dest": "cargo/vendor/libc-0.2.155",
        "dest-filename": ".cargo-checksum.json"
    },
    {
        "type": "archive",
        "archive-type": "tar-gzip",
        "url": "https://static.crates.io/crates/libm/libm-0.2.8.crate",
        "sha256": "4ec2a862134d2a7d32d7983ddcdd1c4923530833c9f2ea1a44fc5fa473989058",
        "dest": "cargo/vendor/libm-0.2.8"
    },
    {
        "type": "inline",
        "contents": "{\"package\": \"4ec2a862134d2a7d32d7983ddcdd1c4923530833c9f2ea1a44fc5fa473989058\", \"files\": {}}",
        "dest": "cargo/vendor/libm-0.2.8",
        "dest-filename": ".cargo-checksum.json"
    },
    {
        "type": "archive",
        "archive-type": "tar-gzip",
        "url": "https://static.crates.io/crates/linux-raw-sys/linux-raw-sys-0.4.14.crate",
        "sha256": "78b3ae25bc7c8c38cec158d1f2757ee79e9b3740fbc7ccf0e59e4b08d793fa89",
        "dest": "cargo/vendor/linux-raw-sys-0.4.14"
    },
    {
        "type": "inline",
        "contents": "{\"package\": \"78b3ae25bc7c8c38cec158d1f2757ee79e9b3740fbc7ccf0e59e4b08d793fa89\", \"files\": {}}",
        "dest": "cargo/vendor/linux-raw-sys-0.4.14",
        "dest-filename": ".cargo-checksum.json"
    },
    {
        "type": "archive",
        "archive-type": "tar-gzip",
        "url": "https://static.crates.io/crates/lock_api/lock_api-0.4.12.crate",
        "sha256": "07af8b9cdd281b7915f413fa73f29ebd5d55d0d3f0155584dade1ff18cea1b17",
        "dest": "cargo/vendor/lock_api-0.4.12"
    },
    {
        "type": "inline",
        "contents": "{\"package\": \"07af8b9cdd281b7915f413fa73f29ebd5d55d0d3f0155584dade1ff18cea1b17\", \"files\": {}}",
        "dest": "cargo/vendor/lock_api-0.4.12",
        "dest-filename": ".cargo-checksum.json"
    },
    {
        "type": "archive",
        "archive-type": "tar-gzip",
        "url": "https://static.crates.io/crates/log/log-0.4.21.crate",
        "sha256": "90ed8c1e510134f979dbc4f070f87d4313098b704861a105fe34231c70a3901c",
        "dest": "cargo/vendor/log-0.4.21"
    },
    {
        "type": "inline",
        "contents": "{\"package\": \"90ed8c1e510134f979dbc4f070f87d4313098b704861a105fe34231c70a3901c\", \"files\": {}}",
        "dest": "cargo/vendor/log-0.4.21",
        "dest-filename": ".cargo-checksum.json"
    },
    {
        "type": "archive",
        "archive-type": "tar-gzip",
        "url": "https://static.crates.io/crates/md-5/md-5-0.10.6.crate",
        "sha256": "d89e7ee0cfbedfc4da3340218492196241d89eefb6dab27de5df917a6d2e78cf",
        "dest": "cargo/vendor/md-5-0.10.6"
    },
    {
        "type": "inline",
        "contents": "{\"package\": \"d89e7ee0cfbedfc4da3340218492196241d89eefb6dab27de5df917a6d2e78cf\", \"files\": {}}",
        "dest": "cargo/vendor/md-5-0.10.6",
        "dest-filename": ".cargo-checksum.json"
    },
    {
        "type": "archive",
        "archive-type": "tar-gzip",
        "url": "https://static.crates.io/crates/memchr/memchr-2.7.2.crate",
        "sha256": "6c8640c5d730cb13ebd907d8d04b52f55ac9a2eec55b440c8892f40d56c76c1d",
        "dest": "cargo/vendor/memchr-2.7.2"
    },
    {
        "type": "inline",
        "contents": "{\"package\": \"6c8640c5d730cb13ebd907d8d04b52f55ac9a2eec55b440c8892f40d56c76c1d\", \"files\": {}}",
        "dest": "cargo/vendor/memchr-2.7.2",
        "dest-filename": ".cargo-checksum.json"
    },
    {
        "type": "archive",
        "archive-type": "tar-gzip",
        "url": "https://static.crates.io/crates/memfd/memfd-0.6.4.crate",
        "sha256": "b2cffa4ad52c6f791f4f8b15f0c05f9824b2ced1160e88cc393d64fff9a8ac64",
        "dest": "cargo/vendor/memfd-0.6.4"
    },
    {
        "type": "inline",
        "contents": "{\"package\": \"b2cffa4ad52c6f791f4f8b15f0c05f9824b2ced1160e88cc393d64fff9a8ac64\", \"files\": {}}",
        "dest": "cargo/vendor/memfd-0.6.4",
        "dest-filename": ".cargo-checksum.json"
    },
    {
        "type": "archive",
        "archive-type": "tar-gzip",
        "url": "https://static.crates.io/crates/memoffset/memoffset-0.9.1.crate",
        "sha256": "488016bfae457b036d996092f6cb448677611ce4449e970ceaf42695203f218a",
        "dest": "cargo/vendor/memoffset-0.9.1"
    },
    {
        "type": "inline",
        "contents": "{\"package\": \"488016bfae457b036d996092f6cb448677611ce4449e970ceaf42695203f218a\", \"files\": {}}",
        "dest": "cargo/vendor/memoffset-0.9.1",
        "dest-filename": ".cargo-checksum.json"
    },
    {
        "type": "archive",
        "archive-type": "tar-gzip",
        "url": "https://static.crates.io/crates/miniz_oxide/miniz_oxide-0.7.3.crate",
        "sha256": "87dfd01fe195c66b572b37921ad8803d010623c0aca821bea2302239d155cdae",
        "dest": "cargo/vendor/miniz_oxide-0.7.3"
    },
    {
        "type": "inline",
        "contents": "{\"package\": \"87dfd01fe195c66b572b37921ad8803d010623c0aca821bea2302239d155cdae\", \"files\": {}}",
        "dest": "cargo/vendor/miniz_oxide-0.7.3",
        "dest-filename": ".cargo-checksum.json"
    },
    {
        "type": "archive",
        "archive-type": "tar-gzip",
        "url": "https://static.crates.io/crates/mio/mio-0.8.11.crate",
        "sha256": "a4a650543ca06a924e8b371db273b2756685faae30f8487da1b56505a8f78b0c",
        "dest": "cargo/vendor/mio-0.8.11"
    },
    {
        "type": "inline",
        "contents": "{\"package\": \"a4a650543ca06a924e8b371db273b2756685faae30f8487da1b56505a8f78b0c\", \"files\": {}}",
        "dest": "cargo/vendor/mio-0.8.11",
        "dest-filename": ".cargo-checksum.json"
    },
    {
        "type": "archive",
        "archive-type": "tar-gzip",
        "url": "https://static.crates.io/crates/nix/nix-0.28.0.crate",
        "sha256": "ab2156c4fce2f8df6c499cc1c763e4394b7482525bf2a9701c9d79d215f519e4",
        "dest": "cargo/vendor/nix-0.28.0"
    },
    {
        "type": "inline",
        "contents": "{\"package\": \"ab2156c4fce2f8df6c499cc1c763e4394b7482525bf2a9701c9d79d215f519e4\", \"files\": {}}",
        "dest": "cargo/vendor/nix-0.28.0",
        "dest-filename": ".cargo-checksum.json"
    },
    {
        "type": "archive",
        "archive-type": "tar-gzip",
        "url": "https://static.crates.io/crates/nu-ansi-term/nu-ansi-term-0.46.0.crate",
        "sha256": "77a8165726e8236064dbb45459242600304b42a5ea24ee2948e18e023bf7ba84",
        "dest": "cargo/vendor/nu-ansi-term-0.46.0"
    },
    {
        "type": "inline",
        "contents": "{\"package\": \"77a8165726e8236064dbb45459242600304b42a5ea24ee2948e18e023bf7ba84\", \"files\": {}}",
        "dest": "cargo/vendor/nu-ansi-term-0.46.0",
        "dest-filename": ".cargo-checksum.json"
    },
    {
        "type": "archive",
        "archive-type": "tar-gzip",
        "url": "https://static.crates.io/crates/num/num-0.4.3.crate",
        "sha256": "35bd024e8b2ff75562e5f34e7f4905839deb4b22955ef5e73d2fea1b9813cb23",
        "dest": "cargo/vendor/num-0.4.3"
    },
    {
        "type": "inline",
        "contents": "{\"package\": \"35bd024e8b2ff75562e5f34e7f4905839deb4b22955ef5e73d2fea1b9813cb23\", \"files\": {}}",
        "dest": "cargo/vendor/num-0.4.3",
        "dest-filename": ".cargo-checksum.json"
    },
    {
        "type": "archive",
        "archive-type": "tar-gzip",
        "url": "https://static.crates.io/crates/num-bigint/num-bigint-0.4.5.crate",
        "sha256": "c165a9ab64cf766f73521c0dd2cfdff64f488b8f0b3e621face3462d3db536d7",
        "dest": "cargo/vendor/num-bigint-0.4.5"
    },
    {
        "type": "inline",
        "contents": "{\"package\": \"c165a9ab64cf766f73521c0dd2cfdff64f488b8f0b3e621face3462d3db536d7\", \"files\": {}}",
        "dest": "cargo/vendor/num-bigint-0.4.5",
        "dest-filename": ".cargo-checksum.json"
    },
    {
        "type": "archive",
        "archive-type": "tar-gzip",
        "url": "https://static.crates.io/crates/num-bigint-dig/num-bigint-dig-0.8.4.crate",
        "sha256": "dc84195820f291c7697304f3cbdadd1cb7199c0efc917ff5eafd71225c136151",
        "dest": "cargo/vendor/num-bigint-dig-0.8.4"
    },
    {
        "type": "inline",
        "contents": "{\"package\": \"dc84195820f291c7697304f3cbdadd1cb7199c0efc917ff5eafd71225c136151\", \"files\": {}}",
        "dest": "cargo/vendor/num-bigint-dig-0.8.4",
        "dest-filename": ".cargo-checksum.json"
    },
    {
        "type": "archive",
        "archive-type": "tar-gzip",
        "url": "https://static.crates.io/crates/num-complex/num-complex-0.4.6.crate",
        "sha256": "73f88a1307638156682bada9d7604135552957b7818057dcef22705b4d509495",
        "dest": "cargo/vendor/num-complex-0.4.6"
    },
    {
        "type": "inline",
        "contents": "{\"package\": \"73f88a1307638156682bada9d7604135552957b7818057dcef22705b4d509495\", \"files\": {}}",
        "dest": "cargo/vendor/num-complex-0.4.6",
        "dest-filename": ".cargo-checksum.json"
    },
    {
        "type": "archive",
        "archive-type": "tar-gzip",
        "url": "https://static.crates.io/crates/num-integer/num-integer-0.1.46.crate",
        "sha256": "7969661fd2958a5cb096e56c8e1ad0444ac2bbcd0061bd28660485a44879858f",
        "dest": "cargo/vendor/num-integer-0.1.46"
    },
    {
        "type": "inline",
        "contents": "{\"package\": \"7969661fd2958a5cb096e56c8e1ad0444ac2bbcd0061bd28660485a44879858f\", \"files\": {}}",
        "dest": "cargo/vendor/num-integer-0.1.46",
        "dest-filename": ".cargo-checksum.json"
    },
    {
        "type": "archive",
        "archive-type": "tar-gzip",
        "url": "https://static.crates.io/crates/num-iter/num-iter-0.1.45.crate",
        "sha256": "1429034a0490724d0075ebb2bc9e875d6503c3cf69e235a8941aa757d83ef5bf",
        "dest": "cargo/vendor/num-iter-0.1.45"
    },
    {
        "type": "inline",
        "contents": "{\"package\": \"1429034a0490724d0075ebb2bc9e875d6503c3cf69e235a8941aa757d83ef5bf\", \"files\": {}}",
        "dest": "cargo/vendor/num-iter-0.1.45",
        "dest-filename": ".cargo-checksum.json"
    },
    {
        "type": "archive",
        "archive-type": "tar-gzip",
        "url": "https://static.crates.io/crates/num-rational/num-rational-0.4.2.crate",
        "sha256": "f83d14da390562dca69fc84082e73e548e1ad308d24accdedd2720017cb37824",
        "dest": "cargo/vendor/num-rational-0.4.2"
    },
    {
        "type": "inline",
        "contents": "{\"package\": \"f83d14da390562dca69fc84082e73e548e1ad308d24accdedd2720017cb37824\", \"files\": {}}",
        "dest": "cargo/vendor/num-rational-0.4.2",
        "dest-filename": ".cargo-checksum.json"
    },
    {
        "type": "archive",
        "archive-type": "tar-gzip",
        "url": "https://static.crates.io/crates/num-traits/num-traits-0.2.19.crate",
        "sha256": "071dfc062690e90b734c0b2273ce72ad0ffa95f0c74596bc250dcfd960262841",
        "dest": "cargo/vendor/num-traits-0.2.19"
    },
    {
        "type": "inline",
        "contents": "{\"package\": \"071dfc062690e90b734c0b2273ce72ad0ffa95f0c74596bc250dcfd960262841\", \"files\": {}}",
        "dest": "cargo/vendor/num-traits-0.2.19",
        "dest-filename": ".cargo-checksum.json"
    },
    {
        "type": "archive",
        "archive-type": "tar-gzip",
        "url": "https://static.crates.io/crates/num_cpus/num_cpus-1.16.0.crate",
        "sha256": "4161fcb6d602d4d2081af7c3a45852d875a03dd337a6bfdd6e06407b61342a43",
        "dest": "cargo/vendor/num_cpus-1.16.0"
    },
    {
        "type": "inline",
        "contents": "{\"package\": \"4161fcb6d602d4d2081af7c3a45852d875a03dd337a6bfdd6e06407b61342a43\", \"files\": {}}",
        "dest": "cargo/vendor/num_cpus-1.16.0",
        "dest-filename": ".cargo-checksum.json"
    },
    {
        "type": "archive",
        "archive-type": "tar-gzip",
        "url": "https://static.crates.io/crates/object/object-0.32.2.crate",
        "sha256": "a6a622008b6e321afc04970976f62ee297fdbaa6f95318ca343e3eebb9648441",
        "dest": "cargo/vendor/object-0.32.2"
    },
    {
        "type": "inline",
        "contents": "{\"package\": \"a6a622008b6e321afc04970976f62ee297fdbaa6f95318ca343e3eebb9648441\", \"files\": {}}",
        "dest": "cargo/vendor/object-0.32.2",
        "dest-filename": ".cargo-checksum.json"
    },
    {
        "type": "archive",
        "archive-type": "tar-gzip",
        "url": "https://static.crates.io/crates/once_cell/once_cell-1.19.0.crate",
        "sha256": "3fdb12b2476b595f9358c5161aa467c2438859caa136dec86c26fdd2efe17b92",
        "dest": "cargo/vendor/once_cell-1.19.0"
    },
    {
        "type": "inline",
        "contents": "{\"package\": \"3fdb12b2476b595f9358c5161aa467c2438859caa136dec86c26fdd2efe17b92\", \"files\": {}}",
        "dest": "cargo/vendor/once_cell-1.19.0",
        "dest-filename": ".cargo-checksum.json"
    },
    {
        "type": "archive",
        "archive-type": "tar-gzip",
        "url": "https://static.crates.io/crates/oo7/oo7-0.3.2.crate",
        "sha256": "484acc8e440e60205766ff12680f044c7d29e143158312bbf0a43579af896383",
        "dest": "cargo/vendor/oo7-0.3.2"
    },
    {
        "type": "inline",
        "contents": "{\"package\": \"484acc8e440e60205766ff12680f044c7d29e143158312bbf0a43579af896383\", \"files\": {}}",
        "dest": "cargo/vendor/oo7-0.3.2",
        "dest-filename": ".cargo-checksum.json"
    },
    {
        "type": "archive",
        "archive-type": "tar-gzip",
        "url": "https://static.crates.io/crates/ordered-stream/ordered-stream-0.2.0.crate",
        "sha256": "9aa2b01e1d916879f73a53d01d1d6cee68adbb31d6d9177a8cfce093cced1d50",
        "dest": "cargo/vendor/ordered-stream-0.2.0"
    },
    {
        "type": "inline",
        "contents": "{\"package\": \"9aa2b01e1d916879f73a53d01d1d6cee68adbb31d6d9177a8cfce093cced1d50\", \"files\": {}}",
        "dest": "cargo/vendor/ordered-stream-0.2.0",
        "dest-filename": ".cargo-checksum.json"
    },
    {
        "type": "archive",
        "archive-type": "tar-gzip",
        "url": "https://static.crates.io/crates/overload/overload-0.1.1.crate",
        "sha256": "b15813163c1d831bf4a13c3610c05c0d03b39feb07f7e09fa234dac9b15aaf39",
        "dest": "cargo/vendor/overload-0.1.1"
    },
    {
        "type": "inline",
        "contents": "{\"package\": \"b15813163c1d831bf4a13c3610c05c0d03b39feb07f7e09fa234dac9b15aaf39\", \"files\": {}}",
        "dest": "cargo/vendor/overload-0.1.1",
        "dest-filename": ".cargo-checksum.json"
    },
    {
        "type": "archive",
        "archive-type": "tar-gzip",
        "url": "https://static.crates.io/crates/parking/parking-2.2.0.crate",
        "sha256": "bb813b8af86854136c6922af0598d719255ecb2179515e6e7730d468f05c9cae",
        "dest": "cargo/vendor/parking-2.2.0"
    },
    {
        "type": "inline",
        "contents": "{\"package\": \"bb813b8af86854136c6922af0598d719255ecb2179515e6e7730d468f05c9cae\", \"files\": {}}",
        "dest": "cargo/vendor/parking-2.2.0",
        "dest-filename": ".cargo-checksum.json"
    },
    {
        "type": "archive",
        "archive-type": "tar-gzip",
        "url": "https://static.crates.io/crates/parking_lot/parking_lot-0.12.2.crate",
        "sha256": "7e4af0ca4f6caed20e900d564c242b8e5d4903fdacf31d3daf527b66fe6f42fb",
        "dest": "cargo/vendor/parking_lot-0.12.2"
    },
    {
        "type": "inline",
        "contents": "{\"package\": \"7e4af0ca4f6caed20e900d564c242b8e5d4903fdacf31d3daf527b66fe6f42fb\", \"files\": {}}",
        "dest": "cargo/vendor/parking_lot-0.12.2",
        "dest-filename": ".cargo-checksum.json"
    },
    {
        "type": "archive",
        "archive-type": "tar-gzip",
        "url": "https://static.crates.io/crates/parking_lot_core/parking_lot_core-0.9.10.crate",
        "sha256": "1e401f977ab385c9e4e3ab30627d6f26d00e2c73eef317493c4ec6d468726cf8",
        "dest": "cargo/vendor/parking_lot_core-0.9.10"
    },
    {
        "type": "inline",
        "contents": "{\"package\": \"1e401f977ab385c9e4e3ab30627d6f26d00e2c73eef317493c4ec6d468726cf8\", \"files\": {}}",
        "dest": "cargo/vendor/parking_lot_core-0.9.10",
        "dest-filename": ".cargo-checksum.json"
    },
    {
        "type": "archive",
        "archive-type": "tar-gzip",
        "url": "https://static.crates.io/crates/pbkdf2/pbkdf2-0.12.2.crate",
        "sha256": "f8ed6a7761f76e3b9f92dfb0a60a6a6477c61024b775147ff0973a02653abaf2",
        "dest": "cargo/vendor/pbkdf2-0.12.2"
    },
    {
        "type": "inline",
        "contents": "{\"package\": \"f8ed6a7761f76e3b9f92dfb0a60a6a6477c61024b775147ff0973a02653abaf2\", \"files\": {}}",
        "dest": "cargo/vendor/pbkdf2-0.12.2",
        "dest-filename": ".cargo-checksum.json"
    },
    {
        "type": "archive",
        "archive-type": "tar-gzip",
        "url": "https://static.crates.io/crates/pin-project-lite/pin-project-lite-0.2.14.crate",
        "sha256": "bda66fc9667c18cb2758a2ac84d1167245054bcf85d5d1aaa6923f45801bdd02",
        "dest": "cargo/vendor/pin-project-lite-0.2.14"
    },
    {
        "type": "inline",
        "contents": "{\"package\": \"bda66fc9667c18cb2758a2ac84d1167245054bcf85d5d1aaa6923f45801bdd02\", \"files\": {}}",
        "dest": "cargo/vendor/pin-project-lite-0.2.14",
        "dest-filename": ".cargo-checksum.json"
    },
    {
        "type": "archive",
        "archive-type": "tar-gzip",
        "url": "https://static.crates.io/crates/pin-utils/pin-utils-0.1.0.crate",
        "sha256": "8b870d8c151b6f2fb93e84a13146138f05d02ed11c7e7c54f8826aaaf7c9f184",
        "dest": "cargo/vendor/pin-utils-0.1.0"
    },
    {
        "type": "inline",
        "contents": "{\"package\": \"8b870d8c151b6f2fb93e84a13146138f05d02ed11c7e7c54f8826aaaf7c9f184\", \"files\": {}}",
        "dest": "cargo/vendor/pin-utils-0.1.0",
        "dest-filename": ".cargo-checksum.json"
    },
    {
        "type": "archive",
        "archive-type": "tar-gzip",
        "url": "https://static.crates.io/crates/piper/piper-0.2.2.crate",
        "sha256": "464db0c665917b13ebb5d453ccdec4add5658ee1adc7affc7677615356a8afaf",
        "dest": "cargo/vendor/piper-0.2.2"
    },
    {
        "type": "inline",
        "contents": "{\"package\": \"464db0c665917b13ebb5d453ccdec4add5658ee1adc7affc7677615356a8afaf\", \"files\": {}}",
        "dest": "cargo/vendor/piper-0.2.2",
        "dest-filename": ".cargo-checksum.json"
    },
    {
        "type": "archive",
        "archive-type": "tar-gzip",
        "url": "https://static.crates.io/crates/polling/polling-3.7.0.crate",
        "sha256": "645493cf344456ef24219d02a768cf1fb92ddf8c92161679ae3d91b91a637be3",
        "dest": "cargo/vendor/polling-3.7.0"
    },
    {
        "type": "inline",
        "contents": "{\"package\": \"645493cf344456ef24219d02a768cf1fb92ddf8c92161679ae3d91b91a637be3\", \"files\": {}}",
        "dest": "cargo/vendor/polling-3.7.0",
        "dest-filename": ".cargo-checksum.json"
    },
    {
        "type": "archive",
        "archive-type": "tar-gzip",
        "url": "https://static.crates.io/crates/ppv-lite86/ppv-lite86-0.2.17.crate",
        "sha256": "5b40af805b3121feab8a3c29f04d8ad262fa8e0561883e7653e024ae4479e6de",
        "dest": "cargo/vendor/ppv-lite86-0.2.17"
    },
    {
        "type": "inline",
        "contents": "{\"package\": \"5b40af805b3121feab8a3c29f04d8ad262fa8e0561883e7653e024ae4479e6de\", \"files\": {}}",
        "dest": "cargo/vendor/ppv-lite86-0.2.17",
        "dest-filename": ".cargo-checksum.json"
    },
    {
        "type": "archive",
        "archive-type": "tar-gzip",
        "url": "https://static.crates.io/crates/proc-macro-crate/proc-macro-crate-3.1.0.crate",
        "sha256": "6d37c51ca738a55da99dc0c4a34860fd675453b8b36209178c2249bb13651284",
        "dest": "cargo/vendor/proc-macro-crate-3.1.0"
    },
    {
        "type": "inline",
        "contents": "{\"package\": \"6d37c51ca738a55da99dc0c4a34860fd675453b8b36209178c2249bb13651284\", \"files\": {}}",
        "dest": "cargo/vendor/proc-macro-crate-3.1.0",
        "dest-filename": ".cargo-checksum.json"
    },
    {
        "type": "archive",
        "archive-type": "tar-gzip",
        "url": "https://static.crates.io/crates/proc-macro2/proc-macro2-1.0.83.crate",
        "sha256": "0b33eb56c327dec362a9e55b3ad14f9d2f0904fb5a5b03b513ab5465399e9f43",
        "dest": "cargo/vendor/proc-macro2-1.0.83"
    },
    {
        "type": "inline",
        "contents": "{\"package\": \"0b33eb56c327dec362a9e55b3ad14f9d2f0904fb5a5b03b513ab5465399e9f43\", \"files\": {}}",
        "dest": "cargo/vendor/proc-macro2-1.0.83",
        "dest-filename": ".cargo-checksum.json"
    },
    {
        "type": "archive",
        "archive-type": "tar-gzip",
        "url": "https://static.crates.io/crates/quote/quote-1.0.36.crate",
        "sha256": "0fa76aaf39101c457836aec0ce2316dbdc3ab723cdda1c6bd4e6ad4208acaca7",
        "dest": "cargo/vendor/quote-1.0.36"
    },
    {
        "type": "inline",
        "contents": "{\"package\": \"0fa76aaf39101c457836aec0ce2316dbdc3ab723cdda1c6bd4e6ad4208acaca7\", \"files\": {}}",
        "dest": "cargo/vendor/quote-1.0.36",
        "dest-filename": ".cargo-checksum.json"
    },
    {
        "type": "archive",
        "archive-type": "tar-gzip",
        "url": "https://static.crates.io/crates/rand/rand-0.8.5.crate",
        "sha256": "34af8d1a0e25924bc5b7c43c079c942339d8f0a8b57c39049bef581b46327404",
        "dest": "cargo/vendor/rand-0.8.5"
    },
    {
        "type": "inline",
        "contents": "{\"package\": \"34af8d1a0e25924bc5b7c43c079c942339d8f0a8b57c39049bef581b46327404\", \"files\": {}}",
        "dest": "cargo/vendor/rand-0.8.5",
        "dest-filename": ".cargo-checksum.json"
    },
    {
        "type": "archive",
        "archive-type": "tar-gzip",
        "url": "https://static.crates.io/crates/rand_chacha/rand_chacha-0.3.1.crate",
        "sha256": "e6c10a63a0fa32252be49d21e7709d4d4baf8d231c2dbce1eaa8141b9b127d88",
        "dest": "cargo/vendor/rand_chacha-0.3.1"
    },
    {
        "type": "inline",
        "contents": "{\"package\": \"e6c10a63a0fa32252be49d21e7709d4d4baf8d231c2dbce1eaa8141b9b127d88\", \"files\": {}}",
        "dest": "cargo/vendor/rand_chacha-0.3.1",
        "dest-filename": ".cargo-checksum.json"
    },
    {
        "type": "archive",
        "archive-type": "tar-gzip",
        "url": "https://static.crates.io/crates/rand_core/rand_core-0.6.4.crate",
        "sha256": "ec0be4795e2f6a28069bec0b5ff3e2ac9bafc99e6a9a7dc3547996c5c816922c",
        "dest": "cargo/vendor/rand_core-0.6.4"
    },
    {
        "type": "inline",
        "contents": "{\"package\": \"ec0be4795e2f6a28069bec0b5ff3e2ac9bafc99e6a9a7dc3547996c5c816922c\", \"files\": {}}",
        "dest": "cargo/vendor/rand_core-0.6.4",
        "dest-filename": ".cargo-checksum.json"
    },
    {
        "type": "archive",
        "archive-type": "tar-gzip",
        "url": "https://static.crates.io/crates/redox_syscall/redox_syscall-0.5.1.crate",
        "sha256": "469052894dcb553421e483e4209ee581a45100d31b4018de03e5a7ad86374a7e",
        "dest": "cargo/vendor/redox_syscall-0.5.1"
    },
    {
        "type": "inline",
        "contents": "{\"package\": \"469052894dcb553421e483e4209ee581a45100d31b4018de03e5a7ad86374a7e\", \"files\": {}}",
        "dest": "cargo/vendor/redox_syscall-0.5.1",
        "dest-filename": ".cargo-checksum.json"
    },
    {
        "type": "archive",
        "archive-type": "tar-gzip",
        "url": "https://static.crates.io/crates/rustc-demangle/rustc-demangle-0.1.24.crate",
        "sha256": "719b953e2095829ee67db738b3bfa9fa368c94900df327b3f07fe6e794d2fe1f",
        "dest": "cargo/vendor/rustc-demangle-0.1.24"
    },
    {
        "type": "inline",
        "contents": "{\"package\": \"719b953e2095829ee67db738b3bfa9fa368c94900df327b3f07fe6e794d2fe1f\", \"files\": {}}",
        "dest": "cargo/vendor/rustc-demangle-0.1.24",
        "dest-filename": ".cargo-checksum.json"
    },
    {
        "type": "archive",
        "archive-type": "tar-gzip",
        "url": "https://static.crates.io/crates/rustix/rustix-0.38.34.crate",
        "sha256": "70dc5ec042f7a43c4a73241207cecc9873a06d45debb38b329f8541d85c2730f",
        "dest": "cargo/vendor/rustix-0.38.34"
    },
    {
        "type": "inline",
        "contents": "{\"package\": \"70dc5ec042f7a43c4a73241207cecc9873a06d45debb38b329f8541d85c2730f\", \"files\": {}}",
        "dest": "cargo/vendor/rustix-0.38.34",
        "dest-filename": ".cargo-checksum.json"
    },
    {
        "type": "archive",
        "archive-type": "tar-gzip",
        "url": "https://static.crates.io/crates/scopeguard/scopeguard-1.2.0.crate",
        "sha256": "94143f37725109f92c262ed2cf5e59bce7498c01bcc1502d7b9afe439a4e9f49",
        "dest": "cargo/vendor/scopeguard-1.2.0"
    },
    {
        "type": "inline",
        "contents": "{\"package\": \"94143f37725109f92c262ed2cf5e59bce7498c01bcc1502d7b9afe439a4e9f49\", \"files\": {}}",
        "dest": "cargo/vendor/scopeguard-1.2.0",
        "dest-filename": ".cargo-checksum.json"
    },
    {
        "type": "archive",
        "archive-type": "tar-gzip",
        "url": "https://static.crates.io/crates/serde/serde-1.0.202.crate",
        "sha256": "226b61a0d411b2ba5ff6d7f73a476ac4f8bb900373459cd00fab8512828ba395",
        "dest": "cargo/vendor/serde-1.0.202"
    },
    {
        "type": "inline",
        "contents": "{\"package\": \"226b61a0d411b2ba5ff6d7f73a476ac4f8bb900373459cd00fab8512828ba395\", \"files\": {}}",
        "dest": "cargo/vendor/serde-1.0.202",
        "dest-filename": ".cargo-checksum.json"
    },
    {
        "type": "archive",
        "archive-type": "tar-gzip",
        "url": "https://static.crates.io/crates/serde_derive/serde_derive-1.0.202.crate",
        "sha256": "6048858004bcff69094cd972ed40a32500f153bd3be9f716b2eed2e8217c4838",
        "dest": "cargo/vendor/serde_derive-1.0.202"
    },
    {
        "type": "inline",
        "contents": "{\"package\": \"6048858004bcff69094cd972ed40a32500f153bd3be9f716b2eed2e8217c4838\", \"files\": {}}",
        "dest": "cargo/vendor/serde_derive-1.0.202",
        "dest-filename": ".cargo-checksum.json"
    },
    {
        "type": "archive",
        "archive-type": "tar-gzip",
        "url": "https://static.crates.io/crates/serde_repr/serde_repr-0.1.19.crate",
        "sha256": "6c64451ba24fc7a6a2d60fc75dd9c83c90903b19028d4eff35e88fc1e86564e9",
        "dest": "cargo/vendor/serde_repr-0.1.19"
    },
    {
        "type": "inline",
        "contents": "{\"package\": \"6c64451ba24fc7a6a2d60fc75dd9c83c90903b19028d4eff35e88fc1e86564e9\", \"files\": {}}",
        "dest": "cargo/vendor/serde_repr-0.1.19",
        "dest-filename": ".cargo-checksum.json"
    },
    {
        "type": "archive",
        "archive-type": "tar-gzip",
        "url": "https://static.crates.io/crates/sha1/sha1-0.10.6.crate",
        "sha256": "e3bf829a2d51ab4a5ddf1352d8470c140cadc8301b2ae1789db023f01cedd6ba",
        "dest": "cargo/vendor/sha1-0.10.6"
    },
    {
        "type": "inline",
        "contents": "{\"package\": \"e3bf829a2d51ab4a5ddf1352d8470c140cadc8301b2ae1789db023f01cedd6ba\", \"files\": {}}",
        "dest": "cargo/vendor/sha1-0.10.6",
        "dest-filename": ".cargo-checksum.json"
    },
    {
        "type": "archive",
        "archive-type": "tar-gzip",
        "url": "https://static.crates.io/crates/sha2/sha2-0.10.8.crate",
        "sha256": "793db75ad2bcafc3ffa7c68b215fee268f537982cd901d132f89c6343f3a3dc8",
        "dest": "cargo/vendor/sha2-0.10.8"
    },
    {
        "type": "inline",
        "contents": "{\"package\": \"793db75ad2bcafc3ffa7c68b215fee268f537982cd901d132f89c6343f3a3dc8\", \"files\": {}}",
        "dest": "cargo/vendor/sha2-0.10.8",
        "dest-filename": ".cargo-checksum.json"
    },
    {
        "type": "archive",
        "archive-type": "tar-gzip",
        "url": "https://static.crates.io/crates/sharded-slab/sharded-slab-0.1.7.crate",
        "sha256": "f40ca3c46823713e0d4209592e8d6e826aa57e928f09752619fc696c499637f6",
        "dest": "cargo/vendor/sharded-slab-0.1.7"
    },
    {
        "type": "inline",
        "contents": "{\"package\": \"f40ca3c46823713e0d4209592e8d6e826aa57e928f09752619fc696c499637f6\", \"files\": {}}",
        "dest": "cargo/vendor/sharded-slab-0.1.7",
        "dest-filename": ".cargo-checksum.json"
    },
    {
        "type": "archive",
        "archive-type": "tar-gzip",
        "url": "https://static.crates.io/crates/signal-hook-registry/signal-hook-registry-1.4.2.crate",
        "sha256": "a9e9e0b4211b72e7b8b6e85c807d36c212bdb33ea8587f7569562a84df5465b1",
        "dest": "cargo/vendor/signal-hook-registry-1.4.2"
    },
    {
        "type": "inline",
        "contents": "{\"package\": \"a9e9e0b4211b72e7b8b6e85c807d36c212bdb33ea8587f7569562a84df5465b1\", \"files\": {}}",
        "dest": "cargo/vendor/signal-hook-registry-1.4.2",
        "dest-filename": ".cargo-checksum.json"
    },
    {
        "type": "archive",
        "archive-type": "tar-gzip",
        "url": "https://static.crates.io/crates/slab/slab-0.4.9.crate",
        "sha256": "8f92a496fb766b417c996b9c5e57daf2f7ad3b0bebe1ccfca4856390e3d3bb67",
        "dest": "cargo/vendor/slab-0.4.9"
    },
    {
        "type": "inline",
        "contents": "{\"package\": \"8f92a496fb766b417c996b9c5e57daf2f7ad3b0bebe1ccfca4856390e3d3bb67\", \"files\": {}}",
        "dest": "cargo/vendor/slab-0.4.9",
        "dest-filename": ".cargo-checksum.json"
    },
    {
        "type": "archive",
        "archive-type": "tar-gzip",
        "url": "https://static.crates.io/crates/smallvec/smallvec-1.13.2.crate",
        "sha256": "3c5e1a9a646d36c3599cd173a41282daf47c44583ad367b8e6837255952e5c67",
        "dest": "cargo/vendor/smallvec-1.13.2"
    },
    {
        "type": "inline",
        "contents": "{\"package\": \"3c5e1a9a646d36c3599cd173a41282daf47c44583ad367b8e6837255952e5c67\", \"files\": {}}",
        "dest": "cargo/vendor/smallvec-1.13.2",
        "dest-filename": ".cargo-checksum.json"
    },
    {
        "type": "archive",
        "archive-type": "tar-gzip",
        "url": "https://static.crates.io/crates/socket2/socket2-0.5.7.crate",
        "sha256": "ce305eb0b4296696835b71df73eb912e0f1ffd2556a501fcede6e0c50349191c",
        "dest": "cargo/vendor/socket2-0.5.7"
    },
    {
        "type": "inline",
        "contents": "{\"package\": \"ce305eb0b4296696835b71df73eb912e0f1ffd2556a501fcede6e0c50349191c\", \"files\": {}}",
        "dest": "cargo/vendor/socket2-0.5.7",
        "dest-filename": ".cargo-checksum.json"
    },
    {
        "type": "archive",
        "archive-type": "tar-gzip",
        "url": "https://static.crates.io/crates/spin/spin-0.5.2.crate",
        "sha256": "6e63cff320ae2c57904679ba7cb63280a3dc4613885beafb148ee7bf9aa9042d",
        "dest": "cargo/vendor/spin-0.5.2"
    },
    {
        "type": "inline",
        "contents": "{\"package\": \"6e63cff320ae2c57904679ba7cb63280a3dc4613885beafb148ee7bf9aa9042d\", \"files\": {}}",
        "dest": "cargo/vendor/spin-0.5.2",
        "dest-filename": ".cargo-checksum.json"
    },
    {
        "type": "archive",
        "archive-type": "tar-gzip",
        "url": "https://static.crates.io/crates/static_assertions/static_assertions-1.1.0.crate",
        "sha256": "a2eb9349b6444b326872e140eb1cf5e7c522154d69e7a0ffb0fb81c06b37543f",
        "dest": "cargo/vendor/static_assertions-1.1.0"
    },
    {
        "type": "inline",
        "contents": "{\"package\": \"a2eb9349b6444b326872e140eb1cf5e7c522154d69e7a0ffb0fb81c06b37543f\", \"files\": {}}",
        "dest": "cargo/vendor/static_assertions-1.1.0",
        "dest-filename": ".cargo-checksum.json"
    },
    {
        "type": "archive",
        "archive-type": "tar-gzip",
        "url": "https://static.crates.io/crates/subtle/subtle-2.5.0.crate",
        "sha256": "81cdd64d312baedb58e21336b31bc043b77e01cc99033ce76ef539f78e965ebc",
        "dest": "cargo/vendor/subtle-2.5.0"
    },
    {
        "type": "inline",
        "contents": "{\"package\": \"81cdd64d312baedb58e21336b31bc043b77e01cc99033ce76ef539f78e965ebc\", \"files\": {}}",
        "dest": "cargo/vendor/subtle-2.5.0",
        "dest-filename": ".cargo-checksum.json"
    },
    {
        "type": "archive",
        "archive-type": "tar-gzip",
        "url": "https://static.crates.io/crates/syn/syn-2.0.65.crate",
        "sha256": "d2863d96a84c6439701d7a38f9de935ec562c8832cc55d1dde0f513b52fad106",
        "dest": "cargo/vendor/syn-2.0.65"
    },
    {
        "type": "inline",
        "contents": "{\"package\": \"d2863d96a84c6439701d7a38f9de935ec562c8832cc55d1dde0f513b52fad106\", \"files\": {}}",
        "dest": "cargo/vendor/syn-2.0.65",
        "dest-filename": ".cargo-checksum.json"
    },
    {
        "type": "archive",
        "archive-type": "tar-gzip",
        "url": "https://static.crates.io/crates/tempfile/tempfile-3.10.1.crate",
        "sha256": "85b77fafb263dd9d05cbeac119526425676db3784113aa9295c88498cbf8bff1",
        "dest": "cargo/vendor/tempfile-3.10.1"
    },
    {
        "type": "inline",
        "contents": "{\"package\": \"85b77fafb263dd9d05cbeac119526425676db3784113aa9295c88498cbf8bff1\", \"files\": {}}",
        "dest": "cargo/vendor/tempfile-3.10.1",
        "dest-filename": ".cargo-checksum.json"
    },
    {
        "type": "archive",
        "archive-type": "tar-gzip",
        "url": "https://static.crates.io/crates/thread_local/thread_local-1.1.8.crate",
        "sha256": "8b9ef9bad013ada3808854ceac7b46812a6465ba368859a37e2100283d2d719c",
        "dest": "cargo/vendor/thread_local-1.1.8"
    },
    {
        "type": "inline",
        "contents": "{\"package\": \"8b9ef9bad013ada3808854ceac7b46812a6465ba368859a37e2100283d2d719c\", \"files\": {}}",
        "dest": "cargo/vendor/thread_local-1.1.8",
        "dest-filename": ".cargo-checksum.json"
    },
    {
        "type": "archive",
        "archive-type": "tar-gzip",
        "url": "https://static.crates.io/crates/tokio/tokio-1.37.0.crate",
        "sha256": "1adbebffeca75fcfd058afa480fb6c0b81e165a0323f9c9d39c9697e37c46787",
        "dest": "cargo/vendor/tokio-1.37.0"
    },
    {
        "type": "inline",
        "contents": "{\"package\": \"1adbebffeca75fcfd058afa480fb6c0b81e165a0323f9c9d39c9697e37c46787\", \"files\": {}}",
        "dest": "cargo/vendor/tokio-1.37.0",
        "dest-filename": ".cargo-checksum.json"
    },
    {
        "type": "archive",
        "archive-type": "tar-gzip",
        "url": "https://static.crates.io/crates/tokio-macros/tokio-macros-2.2.0.crate",
        "sha256": "5b8a1e28f2deaa14e508979454cb3a223b10b938b45af148bc0986de36f1923b",
        "dest": "cargo/vendor/tokio-macros-2.2.0"
    },
    {
        "type": "inline",
        "contents": "{\"package\": \"5b8a1e28f2deaa14e508979454cb3a223b10b938b45af148bc0986de36f1923b\", \"files\": {}}",
        "dest": "cargo/vendor/tokio-macros-2.2.0",
        "dest-filename": ".cargo-checksum.json"
    },
    {
        "type": "archive",
        "archive-type": "tar-gzip",
        "url": "https://static.crates.io/crates/toml_datetime/toml_datetime-0.6.6.crate",
        "sha256": "4badfd56924ae69bcc9039335b2e017639ce3f9b001c393c1b2d1ef846ce2cbf",
        "dest": "cargo/vendor/toml_datetime-0.6.6"
    },
    {
        "type": "inline",
        "contents": "{\"package\": \"4badfd56924ae69bcc9039335b2e017639ce3f9b001c393c1b2d1ef846ce2cbf\", \"files\": {}}",
        "dest": "cargo/vendor/toml_datetime-0.6.6",
        "dest-filename": ".cargo-checksum.json"
    },
    {
        "type": "archive",
        "archive-type": "tar-gzip",
        "url": "https://static.crates.io/crates/toml_edit/toml_edit-0.21.1.crate",
        "sha256": "6a8534fd7f78b5405e860340ad6575217ce99f38d4d5c8f2442cb5ecb50090e1",
        "dest": "cargo/vendor/toml_edit-0.21.1"
    },
    {
        "type": "inline",
        "contents": "{\"package\": \"6a8534fd7f78b5405e860340ad6575217ce99f38d4d5c8f2442cb5ecb50090e1\", \"files\": {}}",
        "dest": "cargo/vendor/toml_edit-0.21.1",
        "dest-filename": ".cargo-checksum.json"
    },
    {
        "type": "archive",
        "archive-type": "tar-gzip",
        "url": "https://static.crates.io/crates/tracing/tracing-0.1.40.crate",
        "sha256": "c3523ab5a71916ccf420eebdf5521fcef02141234bbc0b8a49f2fdc4544364ef",
        "dest": "cargo/vendor/tracing-0.1.40"
    },
    {
        "type": "inline",
        "contents": "{\"package\": \"c3523ab5a71916ccf420eebdf5521fcef02141234bbc0b8a49f2fdc4544364ef\", \"files\": {}}",
        "dest": "cargo/vendor/tracing-0.1.40",
        "dest-filename": ".cargo-checksum.json"
    },
    {
        "type": "archive",
        "archive-type": "tar-gzip",
        "url": "https://static.crates.io/crates/tracing-attributes/tracing-attributes-0.1.27.crate",
        "sha256": "34704c8d6ebcbc939824180af020566b01a7c01f80641264eba0999f6c2b6be7",
        "dest": "cargo/vendor/tracing-attributes-0.1.27"
    },
    {
        "type": "inline",
        "contents": "{\"package\": \"34704c8d6ebcbc939824180af020566b01a7c01f80641264eba0999f6c2b6be7\", \"files\": {}}",
        "dest": "cargo/vendor/tracing-attributes-0.1.27",
        "dest-filename": ".cargo-checksum.json"
    },
    {
        "type": "archive",
        "archive-type": "tar-gzip",
        "url": "https://static.crates.io/crates/tracing-core/tracing-core-0.1.32.crate",
        "sha256": "c06d3da6113f116aaee68e4d601191614c9053067f9ab7f6edbcb161237daa54",
        "dest": "cargo/vendor/tracing-core-0.1.32"
    },
    {
        "type": "inline",
        "contents": "{\"package\": \"c06d3da6113f116aaee68e4d601191614c9053067f9ab7f6edbcb161237daa54\", \"files\": {}}",
        "dest": "cargo/vendor/tracing-core-0.1.32",
        "dest-filename": ".cargo-checksum.json"
    },
    {
        "type": "archive",
        "archive-type": "tar-gzip",
        "url": "https://static.crates.io/crates/tracing-log/tracing-log-0.2.0.crate",
        "sha256": "ee855f1f400bd0e5c02d150ae5de3840039a3f54b025156404e34c23c03f47c3",
        "dest": "cargo/vendor/tracing-log-0.2.0"
    },
    {
        "type": "inline",
        "contents": "{\"package\": \"ee855f1f400bd0e5c02d150ae5de3840039a3f54b025156404e34c23c03f47c3\", \"files\": {}}",
        "dest": "cargo/vendor/tracing-log-0.2.0",
        "dest-filename": ".cargo-checksum.json"
    },
    {
        "type": "archive",
        "archive-type": "tar-gzip",
        "url": "https://static.crates.io/crates/tracing-subscriber/tracing-subscriber-0.3.18.crate",
        "sha256": "ad0f048c97dbd9faa9b7df56362b8ebcaa52adb06b498c050d2f4e32f90a7a8b",
        "dest": "cargo/vendor/tracing-subscriber-0.3.18"
    },
    {
        "type": "inline",
        "contents": "{\"package\": \"ad0f048c97dbd9faa9b7df56362b8ebcaa52adb06b498c050d2f4e32f90a7a8b\", \"files\": {}}",
        "dest": "cargo/vendor/tracing-subscriber-0.3.18",
        "dest-filename": ".cargo-checksum.json"
    },
    {
        "type": "archive",
        "archive-type": "tar-gzip",
        "url": "https://static.crates.io/crates/typenum/typenum-1.17.0.crate",
        "sha256": "42ff0bf0c66b8238c6f3b578df37d0b7848e55df8577b3f74f92a69acceeb825",
        "dest": "cargo/vendor/typenum-1.17.0"
    },
    {
        "type": "inline",
        "contents": "{\"package\": \"42ff0bf0c66b8238c6f3b578df37d0b7848e55df8577b3f74f92a69acceeb825\", \"files\": {}}",
        "dest": "cargo/vendor/typenum-1.17.0",
        "dest-filename": ".cargo-checksum.json"
    },
    {
        "type": "archive",
        "archive-type": "tar-gzip",
        "url": "https://static.crates.io/crates/uds_windows/uds_windows-1.1.0.crate",
        "sha256": "89daebc3e6fd160ac4aa9fc8b3bf71e1f74fbf92367ae71fb83a037e8bf164b9",
        "dest": "cargo/vendor/uds_windows-1.1.0"
    },
    {
        "type": "inline",
        "contents": "{\"package\": \"89daebc3e6fd160ac4aa9fc8b3bf71e1f74fbf92367ae71fb83a037e8bf164b9\", \"files\": {}}",
        "dest": "cargo/vendor/uds_windows-1.1.0",
        "dest-filename": ".cargo-checksum.json"
    },
    {
        "type": "archive",
        "archive-type": "tar-gzip",
        "url": "https://static.crates.io/crates/unicode-ident/unicode-ident-1.0.12.crate",
        "sha256": "3354b9ac3fae1ff6755cb6db53683adb661634f67557942dea4facebec0fee4b",
        "dest": "cargo/vendor/unicode-ident-1.0.12"
    },
    {
        "type": "inline",
        "contents": "{\"package\": \"3354b9ac3fae1ff6755cb6db53683adb661634f67557942dea4facebec0fee4b\", \"files\": {}}",
        "dest": "cargo/vendor/unicode-ident-1.0.12",
        "dest-filename": ".cargo-checksum.json"
    },
    {
        "type": "archive",
        "archive-type": "tar-gzip",
        "url": "https://static.crates.io/crates/valuable/valuable-0.1.0.crate",
        "sha256": "830b7e5d4d90034032940e4ace0d9a9a057e7a45cd94e6c007832e39edb82f6d",
        "dest": "cargo/vendor/valuable-0.1.0"
    },
    {
        "type": "inline",
        "contents": "{\"package\": \"830b7e5d4d90034032940e4ace0d9a9a057e7a45cd94e6c007832e39edb82f6d\", \"files\": {}}",
        "dest": "cargo/vendor/valuable-0.1.0",
        "dest-filename": ".cargo-checksum.json"
    },
    {
        "type": "archive",
        "archive-type": "tar-gzip",
        "url": "https://static.crates.io/crates/version_check/version_check-0.9.4.crate",
        "sha256": "49874b5167b65d7193b8aba1567f5c7d93d001cafc34600cee003eda787e483f",
        "dest": "cargo/vendor/version_check-0.9.4"
    },
    {
        "type": "inline",
        "contents": "{\"package\": \"49874b5167b65d7193b8aba1567f5c7d93d001cafc34600cee003eda787e483f\", \"files\": {}}",
        "dest": "cargo/vendor/version_check-0.9.4",
        "dest-filename": ".cargo-checksum.json"
    },
    {
        "type": "archive",
        "archive-type": "tar-gzip",
        "url": "https://static.crates.io/crates/wasi/wasi-0.11.0+wasi-snapshot-preview1.crate",
        "sha256": "9c8d87e72b64a3b4db28d11ce29237c246188f4f51057d65a7eab63b7987e423",
        "dest": "cargo/vendor/wasi-0.11.0+wasi-snapshot-preview1"
    },
    {
        "type": "inline",
        "contents": "{\"package\": \"9c8d87e72b64a3b4db28d11ce29237c246188f4f51057d65a7eab63b7987e423\", \"files\": {}}",
        "dest": "cargo/vendor/wasi-0.11.0+wasi-snapshot-preview1",
        "dest-filename": ".cargo-checksum.json"
    },
    {
        "type": "archive",
        "archive-type": "tar-gzip",
        "url": "https://static.crates.io/crates/winapi/winapi-0.3.9.crate",
        "sha256": "5c839a674fcd7a98952e593242ea400abe93992746761e38641405d28b00f419",
        "dest": "cargo/vendor/winapi-0.3.9"
    },
    {
        "type": "inline",
        "contents": "{\"package\": \"5c839a674fcd7a98952e593242ea400abe93992746761e38641405d28b00f419\", \"files\": {}}",
        "dest": "cargo/vendor/winapi-0.3.9",
        "dest-filename": ".cargo-checksum.json"
    },
    {
        "type": "archive",
        "archive-type": "tar-gzip",
        "url": "https://static.crates.io/crates/winapi-i686-pc-windows-gnu/winapi-i686-pc-windows-gnu-0.4.0.crate",
        "sha256": "ac3b87c63620426dd9b991e5ce0329eff545bccbbb34f3be09ff6fb6ab51b7b6",
        "dest": "cargo/vendor/winapi-i686-pc-windows-gnu-0.4.0"
    },
    {
        "type": "inline",
        "contents": "{\"package\": \"ac3b87c63620426dd9b991e5ce0329eff545bccbbb34f3be09ff6fb6ab51b7b6\", \"files\": {}}",
        "dest": "cargo/vendor/winapi-i686-pc-windows-gnu-0.4.0",
        "dest-filename": ".cargo-checksum.json"
    },
    {
        "type": "archive",
        "archive-type": "tar-gzip",
        "url": "https://static.crates.io/crates/winapi-x86_64-pc-windows-gnu/winapi-x86_64-pc-windows-gnu-0.4.0.crate",
        "sha256": "712e227841d057c1ee1cd2fb22fa7e5a5461ae8e48fa2ca79ec42cfc1931183f",
        "dest": "cargo/vendor/winapi-x86_64-pc-windows-gnu-0.4.0"
    },
    {
        "type": "inline",
        "contents": "{\"package\": \"712e227841d057c1ee1cd2fb22fa7e5a5461ae8e48fa2ca79ec42cfc1931183f\", \"files\": {}}",
        "dest": "cargo/vendor/winapi-x86_64-pc-windows-gnu-0.4.0",
        "dest-filename": ".cargo-checksum.json"
    },
    {
        "type": "archive",
        "archive-type": "tar-gzip",
        "url": "https://static.crates.io/crates/windows-sys/windows-sys-0.48.0.crate",
        "sha256": "677d2418bec65e3338edb076e806bc1ec15693c5d0104683f2efe857f61056a9",
        "dest": "cargo/vendor/windows-sys-0.48.0"
    },
    {
        "type": "inline",
        "contents": "{\"package\": \"677d2418bec65e3338edb076e806bc1ec15693c5d0104683f2efe857f61056a9\", \"files\": {}}",
        "dest": "cargo/vendor/windows-sys-0.48.0",
        "dest-filename": ".cargo-checksum.json"
    },
    {
        "type": "archive",
        "archive-type": "tar-gzip",
        "url": "https://static.crates.io/crates/windows-sys/windows-sys-0.52.0.crate",
        "sha256": "282be5f36a8ce781fad8c8ae18fa3f9beff57ec1b52cb3de0789201425d9a33d",
        "dest": "cargo/vendor/windows-sys-0.52.0"
    },
    {
        "type": "inline",
        "contents": "{\"package\": \"282be5f36a8ce781fad8c8ae18fa3f9beff57ec1b52cb3de0789201425d9a33d\", \"files\": {}}",
        "dest": "cargo/vendor/windows-sys-0.52.0",
        "dest-filename": ".cargo-checksum.json"
    },
    {
        "type": "archive",
        "archive-type": "tar-gzip",
        "url": "https://static.crates.io/crates/windows-targets/windows-targets-0.48.5.crate",
        "sha256": "9a2fa6e2155d7247be68c096456083145c183cbbbc2764150dda45a87197940c",
        "dest": "cargo/vendor/windows-targets-0.48.5"
    },
    {
        "type": "inline",
        "contents": "{\"package\": \"9a2fa6e2155d7247be68c096456083145c183cbbbc2764150dda45a87197940c\", \"files\": {}}",
        "dest": "cargo/vendor/windows-targets-0.48.5",
        "dest-filename": ".cargo-checksum.json"
    },
    {
        "type": "archive",
        "archive-type": "tar-gzip",
        "url": "https://static.crates.io/crates/windows-targets/windows-targets-0.52.5.crate",
        "sha256": "6f0713a46559409d202e70e28227288446bf7841d3211583a4b53e3f6d96e7eb",
        "dest": "cargo/vendor/windows-targets-0.52.5"
    },
    {
        "type": "inline",
        "contents": "{\"package\": \"6f0713a46559409d202e70e28227288446bf7841d3211583a4b53e3f6d96e7eb\", \"files\": {}}",
        "dest": "cargo/vendor/windows-targets-0.52.5",
        "dest-filename": ".cargo-checksum.json"
    },
    {
        "type": "archive",
        "archive-type": "tar-gzip",
        "url": "https://static.crates.io/crates/windows_aarch64_gnullvm/windows_aarch64_gnullvm-0.48.5.crate",
        "sha256": "2b38e32f0abccf9987a4e3079dfb67dcd799fb61361e53e2882c3cbaf0d905d8",
        "dest": "cargo/vendor/windows_aarch64_gnullvm-0.48.5"
    },
    {
        "type": "inline",
        "contents": "{\"package\": \"2b38e32f0abccf9987a4e3079dfb67dcd799fb61361e53e2882c3cbaf0d905d8\", \"files\": {}}",
        "dest": "cargo/vendor/windows_aarch64_gnullvm-0.48.5",
        "dest-filename": ".cargo-checksum.json"
    },
    {
        "type": "archive",
        "archive-type": "tar-gzip",
        "url": "https://static.crates.io/crates/windows_aarch64_gnullvm/windows_aarch64_gnullvm-0.52.5.crate",
        "sha256": "7088eed71e8b8dda258ecc8bac5fb1153c5cffaf2578fc8ff5d61e23578d3263",
        "dest": "cargo/vendor/windows_aarch64_gnullvm-0.52.5"
    },
    {
        "type": "inline",
        "contents": "{\"package\": \"7088eed71e8b8dda258ecc8bac5fb1153c5cffaf2578fc8ff5d61e23578d3263\", \"files\": {}}",
        "dest": "cargo/vendor/windows_aarch64_gnullvm-0.52.5",
        "dest-filename": ".cargo-checksum.json"
    },
    {
        "type": "archive",
        "archive-type": "tar-gzip",
        "url": "https://static.crates.io/crates/windows_aarch64_msvc/windows_aarch64_msvc-0.48.5.crate",
        "sha256": "dc35310971f3b2dbbf3f0690a219f40e2d9afcf64f9ab7cc1be722937c26b4bc",
        "dest": "cargo/vendor/windows_aarch64_msvc-0.48.5"
    },
    {
        "type": "inline",
        "contents": "{\"package\": \"dc35310971f3b2dbbf3f0690a219f40e2d9afcf64f9ab7cc1be722937c26b4bc\", \"files\": {}}",
        "dest": "cargo/vendor/windows_aarch64_msvc-0.48.5",
        "dest-filename": ".cargo-checksum.json"
    },
    {
        "type": "archive",
        "archive-type": "tar-gzip",
        "url": "https://static.crates.io/crates/windows_aarch64_msvc/windows_aarch64_msvc-0.52.5.crate",
        "sha256": "9985fd1504e250c615ca5f281c3f7a6da76213ebd5ccc9561496568a2752afb6",
        "dest": "cargo/vendor/windows_aarch64_msvc-0.52.5"
    },
    {
        "type": "inline",
        "contents": "{\"package\": \"9985fd1504e250c615ca5f281c3f7a6da76213ebd5ccc9561496568a2752afb6\", \"files\": {}}",
        "dest": "cargo/vendor/windows_aarch64_msvc-0.52.5",
        "dest-filename": ".cargo-checksum.json"
    },
    {
        "type": "archive",
        "archive-type": "tar-gzip",
        "url": "https://static.crates.io/crates/windows_i686_gnu/windows_i686_gnu-0.48.5.crate",
        "sha256": "a75915e7def60c94dcef72200b9a8e58e5091744960da64ec734a6c6e9b3743e",
        "dest": "cargo/vendor/windows_i686_gnu-0.48.5"
    },
    {
        "type": "inline",
        "contents": "{\"package\": \"a75915e7def60c94dcef72200b9a8e58e5091744960da64ec734a6c6e9b3743e\", \"files\": {}}",
        "dest": "cargo/vendor/windows_i686_gnu-0.48.5",
        "dest-filename": ".cargo-checksum.json"
    },
    {
        "type": "archive",
        "archive-type": "tar-gzip",
        "url": "https://static.crates.io/crates/windows_i686_gnu/windows_i686_gnu-0.52.5.crate",
        "sha256": "88ba073cf16d5372720ec942a8ccbf61626074c6d4dd2e745299726ce8b89670",
        "dest": "cargo/vendor/windows_i686_gnu-0.52.5"
    },
    {
        "type": "inline",
        "contents": "{\"package\": \"88ba073cf16d5372720ec942a8ccbf61626074c6d4dd2e745299726ce8b89670\", \"files\": {}}",
        "dest": "cargo/vendor/windows_i686_gnu-0.52.5",
        "dest-filename": ".cargo-checksum.json"
    },
    {
        "type": "archive",
        "archive-type": "tar-gzip",
        "url": "https://static.crates.io/crates/windows_i686_gnullvm/windows_i686_gnullvm-0.52.5.crate",
        "sha256": "87f4261229030a858f36b459e748ae97545d6f1ec60e5e0d6a3d32e0dc232ee9",
        "dest": "cargo/vendor/windows_i686_gnullvm-0.52.5"
    },
    {
        "type": "inline",
        "contents": "{\"package\": \"87f4261229030a858f36b459e748ae97545d6f1ec60e5e0d6a3d32e0dc232ee9\", \"files\": {}}",
        "dest": "cargo/vendor/windows_i686_gnullvm-0.52.5",
        "dest-filename": ".cargo-checksum.json"
    },
    {
        "type": "archive",
        "archive-type": "tar-gzip",
        "url": "https://static.crates.io/crates/windows_i686_msvc/windows_i686_msvc-0.48.5.crate",
        "sha256": "8f55c233f70c4b27f66c523580f78f1004e8b5a8b659e05a4eb49d4166cca406",
        "dest": "cargo/vendor/windows_i686_msvc-0.48.5"
    },
    {
        "type": "inline",
        "contents": "{\"package\": \"8f55c233f70c4b27f66c523580f78f1004e8b5a8b659e05a4eb49d4166cca406\", \"files\": {}}",
        "dest": "cargo/vendor/windows_i686_msvc-0.48.5",
        "dest-filename": ".cargo-checksum.json"
    },
    {
        "type": "archive",
        "archive-type": "tar-gzip",
        "url": "https://static.crates.io/crates/windows_i686_msvc/windows_i686_msvc-0.52.5.crate",
        "sha256": "db3c2bf3d13d5b658be73463284eaf12830ac9a26a90c717b7f771dfe97487bf",
        "dest": "cargo/vendor/windows_i686_msvc-0.52.5"
    },
    {
        "type": "inline",
        "contents": "{\"package\": \"db3c2bf3d13d5b658be73463284eaf12830ac9a26a90c717b7f771dfe97487bf\", \"files\": {}}",
        "dest": "cargo/vendor/windows_i686_msvc-0.52.5",
        "dest-filename": ".cargo-checksum.json"
    },
    {
        "type": "archive",
        "archive-type": "tar-gzip",
        "url": "https://static.crates.io/crates/windows_x86_64_gnu/windows_x86_64_gnu-0.48.5.crate",
        "sha256": "53d40abd2583d23e4718fddf1ebec84dbff8381c07cae67ff7768bbf19c6718e",
        "dest": "cargo/vendor/windows_x86_64_gnu-0.48.5"
    },
    {
        "type": "inline",
        "contents": "{\"package\": \"53d40abd2583d23e4718fddf1ebec84dbff8381c07cae67ff7768bbf19c6718e\", \"files\": {}}",
        "dest": "cargo/vendor/windows_x86_64_gnu-0.48.5",
        "dest-filename": ".cargo-checksum.json"
    },
    {
        "type": "archive",
        "archive-type": "tar-gzip",
        "url": "https://static.crates.io/crates/windows_x86_64_gnu/windows_x86_64_gnu-0.52.5.crate",
        "sha256": "4e4246f76bdeff09eb48875a0fd3e2af6aada79d409d33011886d3e1581517d9",
        "dest": "cargo/vendor/windows_x86_64_gnu-0.52.5"
    },
    {
        "type": "inline",
        "contents": "{\"package\": \"4e4246f76bdeff09eb48875a0fd3e2af6aada79d409d33011886d3e1581517d9\", \"files\": {}}",
        "dest": "cargo/vendor/windows_x86_64_gnu-0.52.5",
        "dest-filename": ".cargo-checksum.json"
    },
    {
        "type": "archive",
        "archive-type": "tar-gzip",
        "url": "https://static.crates.io/crates/windows_x86_64_gnullvm/windows_x86_64_gnullvm-0.48.5.crate",
        "sha256": "0b7b52767868a23d5bab768e390dc5f5c55825b6d30b86c844ff2dc7414044cc",
        "dest": "cargo/vendor/windows_x86_64_gnullvm-0.48.5"
    },
    {
        "type": "inline",
        "contents": "{\"package\": \"0b7b52767868a23d5bab768e390dc5f5c55825b6d30b86c844ff2dc7414044cc\", \"files\": {}}",
        "dest": "cargo/vendor/windows_x86_64_gnullvm-0.48.5",
        "dest-filename": ".cargo-checksum.json"
    },
    {
        "type": "archive",
        "archive-type": "tar-gzip",
        "url": "https://static.crates.io/crates/windows_x86_64_gnullvm/windows_x86_64_gnullvm-0.52.5.crate",
        "sha256": "852298e482cd67c356ddd9570386e2862b5673c85bd5f88df9ab6802b334c596",
        "dest": "cargo/vendor/windows_x86_64_gnullvm-0.52.5"
    },
    {
        "type": "inline",
        "contents": "{\"package\": \"852298e482cd67c356ddd9570386e2862b5673c85bd5f88df9ab6802b334c596\", \"files\": {}}",
        "dest": "cargo/vendor/windows_x86_64_gnullvm-0.52.5",
        "dest-filename": ".cargo-checksum.json"
    },
    {
        "type": "archive",
        "archive-type": "tar-gzip",
        "url": "https://static.crates.io/crates/windows_x86_64_msvc/windows_x86_64_msvc-0.48.5.crate",
        "sha256": "ed94fce61571a4006852b7389a063ab983c02eb1bb37b47f8272ce92d06d9538",
        "dest": "cargo/vendor/windows_x86_64_msvc-0.48.5"
    },
    {
        "type": "inline",
        "contents": "{\"package\": \"ed94fce61571a4006852b7389a063ab983c02eb1bb37b47f8272ce92d06d9538\", \"files\": {}}",
        "dest": "cargo/vendor/windows_x86_64_msvc-0.48.5",
        "dest-filename": ".cargo-checksum.json"
    },
    {
        "type": "archive",
        "archive-type": "tar-gzip",
        "url": "https://static.crates.io/crates/windows_x86_64_msvc/windows_x86_64_msvc-0.52.5.crate",
        "sha256": "bec47e5bfd1bff0eeaf6d8b485cc1074891a197ab4225d504cb7a1ab88b02bf0",
        "dest": "cargo/vendor/windows_x86_64_msvc-0.52.5"
    },
    {
        "type": "inline",
        "contents": "{\"package\": \"bec47e5bfd1bff0eeaf6d8b485cc1074891a197ab4225d504cb7a1ab88b02bf0\", \"files\": {}}",
        "dest": "cargo/vendor/windows_x86_64_msvc-0.52.5",
        "dest-filename": ".cargo-checksum.json"
    },
    {
        "type": "archive",
        "archive-type": "tar-gzip",
        "url": "https://static.crates.io/crates/winnow/winnow-0.5.40.crate",
        "sha256": "f593a95398737aeed53e489c785df13f3618e41dbcd6718c6addbf1395aa6876",
        "dest": "cargo/vendor/winnow-0.5.40"
    },
    {
        "type": "inline",
        "contents": "{\"package\": \"f593a95398737aeed53e489c785df13f3618e41dbcd6718c6addbf1395aa6876\", \"files\": {}}",
        "dest": "cargo/vendor/winnow-0.5.40",
        "dest-filename": ".cargo-checksum.json"
    },
    {
        "type": "archive",
        "archive-type": "tar-gzip",
        "url": "https://static.crates.io/crates/xdg-home/xdg-home-1.1.0.crate",
        "sha256": "21e5a325c3cb8398ad6cf859c1135b25dd29e186679cf2da7581d9679f63b38e",
        "dest": "cargo/vendor/xdg-home-1.1.0"
    },
    {
        "type": "inline",
        "contents": "{\"package\": \"21e5a325c3cb8398ad6cf859c1135b25dd29e186679cf2da7581d9679f63b38e\", \"files\": {}}",
        "dest": "cargo/vendor/xdg-home-1.1.0",
        "dest-filename": ".cargo-checksum.json"
    },
    {
        "type": "archive",
        "archive-type": "tar-gzip",
        "url": "https://static.crates.io/crates/zbus/zbus-4.2.2.crate",
        "sha256": "989c3977a7aafa97b12b9a35d21cdcff9b0d2289762b14683f45d66b1ba6c48f",
        "dest": "cargo/vendor/zbus-4.2.2"
    },
    {
        "type": "inline",
        "contents": "{\"package\": \"989c3977a7aafa97b12b9a35d21cdcff9b0d2289762b14683f45d66b1ba6c48f\", \"files\": {}}",
        "dest": "cargo/vendor/zbus-4.2.2",
        "dest-filename": ".cargo-checksum.json"
    },
    {
        "type": "archive",
        "archive-type": "tar-gzip",
        "url": "https://static.crates.io/crates/zbus_macros/zbus_macros-4.2.2.crate",
        "sha256": "6fe9de53245dcf426b7be226a4217dd5e339080e5d46e64a02d6e5dcbf90fca1",
        "dest": "cargo/vendor/zbus_macros-4.2.2"
    },
    {
        "type": "inline",
        "contents": "{\"package\": \"6fe9de53245dcf426b7be226a4217dd5e339080e5d46e64a02d6e5dcbf90fca1\", \"files\": {}}",
        "dest": "cargo/vendor/zbus_macros-4.2.2",
        "dest-filename": ".cargo-checksum.json"
    },
    {
        "type": "archive",
        "archive-type": "tar-gzip",
        "url": "https://static.crates.io/crates/zbus_names/zbus_names-3.0.0.crate",
        "sha256": "4b9b1fef7d021261cc16cba64c351d291b715febe0fa10dc3a443ac5a5022e6c",
        "dest": "cargo/vendor/zbus_names-3.0.0"
    },
    {
        "type": "inline",
        "contents": "{\"package\": \"4b9b1fef7d021261cc16cba64c351d291b715febe0fa10dc3a443ac5a5022e6c\", \"files\": {}}",
        "dest": "cargo/vendor/zbus_names-3.0.0",
        "dest-filename": ".cargo-checksum.json"
    },
    {
        "type": "archive",
        "archive-type": "tar-gzip",
        "url": "https://static.crates.io/crates/zeroize/zeroize-1.7.0.crate",
        "sha256": "525b4ec142c6b68a2d10f01f7bbf6755599ca3f81ea53b8431b7dd348f5fdb2d",
        "dest": "cargo/vendor/zeroize-1.7.0"
    },
    {
        "type": "inline",
        "contents": "{\"package\": \"525b4ec142c6b68a2d10f01f7bbf6755599ca3f81ea53b8431b7dd348f5fdb2d\", \"files\": {}}",
        "dest": "cargo/vendor/zeroize-1.7.0",
        "dest-filename": ".cargo-checksum.json"
    },
    {
        "type": "archive",
        "archive-type": "tar-gzip",
        "url": "https://static.crates.io/crates/zeroize_derive/zeroize_derive-1.4.2.crate",
        "sha256": "ce36e65b0d2999d2aafac989fb249189a141aee1f53c612c1f37d72631959f69",
        "dest": "cargo/vendor/zeroize_derive-1.4.2"
    },
    {
        "type": "inline",
        "contents": "{\"package\": \"ce36e65b0d2999d2aafac989fb249189a141aee1f53c612c1f37d72631959f69\", \"files\": {}}",
        "dest": "cargo/vendor/zeroize_derive-1.4.2",
        "dest-filename": ".cargo-checksum.json"
    },
    {
        "type": "archive",
        "archive-type": "tar-gzip",
        "url": "https://static.crates.io/crates/zvariant/zvariant-4.1.1.crate",
        "sha256": "9aa6d31a02fbfb602bfde791de7fedeb9c2c18115b3d00f3a36e489f46ffbbc7",
        "dest": "cargo/vendor/zvariant-4.1.1"
    },
    {
        "type": "inline",
        "contents": "{\"package\": \"9aa6d31a02fbfb602bfde791de7fedeb9c2c18115b3d00f3a36e489f46ffbbc7\", \"files\": {}}",
        "dest": "cargo/vendor/zvariant-4.1.1",
        "dest-filename": ".cargo-checksum.json"
    },
    {
        "type": "archive",
        "archive-type": "tar-gzip",
        "url": "https://static.crates.io/crates/zvariant_derive/zvariant_derive-4.1.1.crate",
        "sha256": "642bf1b6b6d527988b3e8193d20969d53700a36eac734d21ae6639db168701c8",
        "dest": "cargo/vendor/zvariant_derive-4.1.1"
    },
    {
        "type": "inline",
        "contents": "{\"package\": \"642bf1b6b6d527988b3e8193d20969d53700a36eac734d21ae6639db168701c8\", \"files\": {}}",
        "dest": "cargo/vendor/zvariant_derive-4.1.1",
        "dest-filename": ".cargo-checksum.json"
    },
    {
        "type": "archive",
        "archive-type": "tar-gzip",
        "url": "https://static.crates.io/crates/zvariant_utils/zvariant_utils-2.0.0.crate",
        "sha256": "fc242db087efc22bd9ade7aa7809e4ba828132edc312871584a6b4391bdf8786",
        "dest": "cargo/vendor/zvariant_utils-2.0.0"
    },
    {
        "type": "inline",
        "contents": "{\"package\": \"fc242db087efc22bd9ade7aa7809e4ba828132edc312871584a6b4391bdf8786\", \"files\": {}}",
        "dest": "cargo/vendor/zvariant_utils-2.0.0",
        "dest-filename": ".cargo-checksum.json"
    },
    {
        "type": "inline",
        "contents": "[source.vendored-sources]\ndirectory = \"cargo/vendor\"\n\n[source.crates-io]\nreplace-with = \"vendored-sources\"\n",
        "dest": "cargo",
        "dest-filename": "config"
    }
]